"Location ID","Sample Date","Parameter Name","Field Sample ID","Report Result","Report Units","Sample Purpose","Lab ID","Best Value","Detected","Analysis Type Code","Field Preparation Code","Dilution Factor","Sample Usage Code"
"R-28","2005-05-20T00:00:00","Cr","EU05050G28R01",360.0,"ug/L","REG","EES6","N","Y","INIT","UF",NA,NA
"R-28","2005-05-20T00:00:00","Cr","EU05050G28R01-FB",1.0,"ug/L","FB","EES6","N","N","INIT","UF",NA,NA
"R-28","2005-05-20T00:00:00","Cr","GF05050G28R01",375.0,"ug/L","REG","GELC","Y","Y","INIT","F",1.0,NA
"R-28","2005-05-20T00:00:00","Cr","GU05050G28R01",389.0,"ug/L","REG","GELC","Y","Y","INIT","UF",1.0,NA
"R-28","2005-05-20T00:00:00","Cr","GU05050G28R01-FB",1.0,"ug/L","FB","GELC","Y","N","INIT","UF",1.0,NA
"R-28","2005-09-01T00:00:00","Cr","EU05080G28R01",370.0,"ug/L","REG","EES6","N","Y","INIT","UF",NA,NA
"R-28","2005-09-01T00:00:00","Cr","EU05080G28R02",380.0,"ug/L","REG","EES6","N","Y","INIT","UF",NA,NA
"R-28","2005-09-01T00:00:00","Cr","GF05080G28R01",397.0,"ug/L","REG","GELC","Y","Y","INIT","F",1.0,NA
"R-28","2005-09-01T00:00:00","Cr","GU05080G28R01",404.0,"ug/L","REG","GELC","Y","Y","INIT","UF",1.0,NA
"R-28","2005-11-10T00:00:00","Cr","EU05110G28R01",350.0,"ug/L","REG","EES6","N","Y","INIT","UF",NA,NA
"R-28","2005-11-10T00:00:00","Cr","GF05110G28R01",404.0,"ug/L","REG","GELC","Y","Y","INIT","F",1.0,NA
"R-28","2005-11-10T00:00:00","Cr","GU05110G28R01",416.0,"ug/L","REG","GELC","Y","Y","INIT","UF",1.0,NA
"R-28","2006-01-26T00:00:00","Cr","EF06010G28R02-0",370.0,"ug/L","SS","EES6","N","Y","INIT","F",NA,NA
"R-28","2006-01-26T00:00:00","Cr","EF06010G28R03-1",400.0,"ug/L","SS","EES6","N","Y","INIT","F",NA,NA
"R-28","2006-01-26T00:00:00","Cr","EF06010G28R04-2",390.0,"ug/L","SS","EES6","N","Y","INIT","F",NA,NA
"R-28","2006-01-26T00:00:00","Cr","EF06010G28R91-0",380.0,"ug/L","SS-FD","EES6","N","Y","INIT","F",NA,NA
"R-28","2006-01-26T00:00:00","Cr","EF06010G28R92-1",330.0,"ug/L","SS-FD","EES6","N","Y","INIT","F",NA,NA
"R-28","2006-01-26T00:00:00","Cr","EF06010G28R93-2",400.0,"ug/L","SS-FD","EES6","N","Y","INIT","F",NA,NA
"R-28","2006-01-26T00:00:00","Cr","EU06010G28R01",400.0,"ug/L","REG","EES6","N","Y","INIT","UF",NA,NA
"R-28","2006-01-26T00:00:00","Cr","EU06010G28R90",400.0,"ug/L","FD","EES6","N","Y","INIT","UF",NA,NA
"R-28","2006-01-26T00:00:00","Cr","EU06010G28R91-0",410.0,"ug/L","SS","EES6","N","Y","INIT","UF",NA,NA
"R-28","2006-01-26T00:00:00","Cr","EU06010G28R92-1",400.0,"ug/L","SS","EES6","N","Y","INIT","UF",NA,NA
"R-28","2006-01-26T00:00:00","Cr","EU06010G28R93-2",410.0,"ug/L","SS","EES6","N","Y","INIT","UF",NA,NA
"R-28","2006-01-26T00:00:00","Cr","GF06010G28R01",414.0,"ug/L","REG","GELC","Y","Y","INIT","F",1.0,NA
"R-28","2006-01-26T00:00:00","Cr","GF06010G28R90",428.0,"ug/L","FD","GELC","Y","Y","INIT","F",1.0,NA
"R-28","2006-01-26T00:00:00","Cr","GU06010G28R01",421.0,"ug/L","REG","GELC","Y","Y","INIT","UF",1.0,NA
"R-28","2006-01-26T00:00:00","Cr","GU06010G28R90",416.0,"ug/L","FD","GELC","Y","Y","INIT","UF",1.0,NA
"R-28","2006-04-19T00:00:00","Cr","EF06040G28R01",434.0,"ug/L","REG","EES6","N","Y","INIT","F",NA,NA
"R-28","2006-04-19T00:00:00","Cr","EF06040G28R01",416.0,"ug/L","REG","EES6","N","Y","RE","F",NA,NA
"R-28","2006-04-19T00:00:00","Cr","EU06040G28R01",428.0,"ug/L","REG","EES6","N","Y","INIT","UF",NA,NA
"R-28","2006-04-19T00:00:00","Cr","EU06040G28R01",402.0,"ug/L","REG","EES6","N","Y","RE","UF",NA,NA
"R-28","2006-04-19T00:00:00","Cr","GF06040G28R01",413.0,"ug/L","REG","GELC","Y","Y","INIT","F",1.0,NA
"R-28","2006-04-19T00:00:00","Cr","GF06040G28R90",405.0,"ug/L","FD","GELC","Y","Y","INIT","F",1.0,NA
"R-28","2006-04-19T00:00:00","Cr","GU06040G28R01",398.0,"ug/L","REG","GELC","Y","Y","INIT","UF",1.0,NA
"R-28","2006-04-19T00:00:00","Cr","GU06040G28R90",392.0,"ug/L","FD","GELC","Y","Y","INIT","UF",1.0,NA
"R-28","2006-07-05T00:00:00","Cr","GF060500G28R01",344.0,"ug/L","REG","GELC","Y","Y","INIT","F",1.0,NA
"R-28","2006-07-05T00:00:00","Cr","GU060500G28R01",428.0,"ug/L","REG","GELC","Y","Y","INIT","UF",5.0,NA
"R-28","2006-10-26T00:00:00","Cr","GF061000G28R01",310.0,"ug/L","REG","GELC","Y","Y","INIT","F",1.0,NA
"R-28","2006-10-26T00:00:00","Cr","GU061000G28R01",323.0,"ug/L","REG","GELC","Y","Y","INIT","UF",1.0,NA
"R-28","2007-03-06T00:00:00","Cr","GF070200G28R01",446.0,"ug/L","REG","GELC","Y","Y","INIT","F",5.0,NA
"R-28","2007-03-06T00:00:00","Cr","GF070200G28R20",425.0,"ug/L","FD","GELC","Y","Y","INIT","F",5.0,NA
"R-28","2007-03-06T00:00:00","Cr","GU070200G28R01",430.0,"ug/L","REG","GELC","Y","Y","INIT","UF",5.0,NA
"R-28","2007-03-06T00:00:00","Cr","GU070200G28R20",412.0,"ug/L","FD","GELC","Y","Y","INIT","UF",5.0,NA
"R-28","2007-06-13T00:00:00","Cr","GF070600G28R01",436.0,"ug/L","REG","GELC","Y","Y","INIT","F",1.0,NA
"R-28","2007-06-13T00:00:00","Cr","GU070600G28R01",444.0,"ug/L","REG","GELC","Y","Y","INIT","UF",1.0,NA
"R-28","2007-08-17T00:00:00","Cr","GF070800G28R01",392.0,"ug/L","REG","GELC","Y","Y","INIT","F",1.0,NA
"R-28","2007-08-17T00:00:00","Cr","GU070800G28R01",401.0,"ug/L","REG","GELC","Y","Y","INIT","UF",1.0,NA
"R-28","2007-11-14T00:00:00","Cr","CAMO-08-8712",385.0,"ug/L","REG","GELC","Y","Y","INIT","F",1.0,"IGMP"
"R-28","2007-11-14T00:00:00","Cr","CAMO-08-8713",365.0,"ug/L","REG","GELC","Y","Y","INIT","UF",1.0,"IGMP"
"R-28","2007-11-29T00:00:00","Cr","GW28-08-9130",393.417,"ug/L","REG","EES6","N","Y","INIT","UF",1.0,"INV"
"R-28","2007-11-29T00:00:00","Cr","GW28-08-9131",386.3,"ug/L","REG","EES6","N","Y","INIT","UF",1.0,"INV"
"R-28","2007-11-29T00:00:00","Cr","GW28-08-9132",384.188,"ug/L","REG","EES6","N","Y","INIT","UF",1.0,"INV"
"R-28","2007-11-29T00:00:00","Cr","GW28-08-9133",378.757,"ug/L","REG","EES6","N","Y","INIT","UF",1.0,"SCR"
"R-28","2007-11-29T00:00:00","Cr","GW28-08-9133",379.0,"ug/L","REG","GELC","Y","Y","INIT","UF",1.0,"SCR"
"R-28","2007-11-29T00:00:00","Cr","GW28-08-9134",379.603,"ug/L","REG","EES6","N","Y","INIT","UF",1.0,"INV"
"R-28","2007-11-29T00:00:00","Cr","GW28-08-9135",385.101,"ug/L","REG","EES6","N","Y","INIT","UF",1.0,"INV"
"R-28","2007-11-29T00:00:00","Cr","GW28-08-9136",383.459,"ug/L","REG","EES6","N","Y","INIT","UF",1.0,"INV"
"R-28","2007-11-29T00:00:00","Cr","GW28-08-9137",378.104,"ug/L","REG","EES6","N","Y","INIT","UF",1.0,"INV"
"R-28","2007-11-29T00:00:00","Cr","GW28-08-9138",395.782,"ug/L","REG","EES6","N","Y","INIT","UF",1.0,"SCR"
"R-28","2007-11-29T00:00:00","Cr","GW28-08-9139",387.722,"ug/L","REG","EES6","N","Y","INIT","UF",1.0,"INV"
"R-28","2007-11-29T00:00:00","Cr","GW28-08-9140",396.46,"ug/L","REG","EES6","N","Y","INIT","UF",1.0,"INV"
"R-28","2007-11-29T00:00:00","Cr","GW28-08-9141",390.373,"ug/L","REG","EES6","N","Y","INIT","UF",1.0,"INV"
"R-28","2007-11-29T00:00:00","Cr","GW28-08-9142",394.058,"ug/L","REG","EES6","N","Y","INIT","UF",1.0,"INV"
"R-28","2007-11-29T00:00:00","Cr","GW28-08-9143",389.864,"ug/L","REG","EES6","N","Y","INIT","UF",1.0,"INV"
"R-28","2007-11-29T00:00:00","Cr","GW28-08-9144",414.217,"ug/L","REG","EES6","N","Y","INIT","UF",1.0,"SCR"
"R-28","2007-11-29T00:00:00","Cr","GW28-08-9145",395.006,"ug/L","REG","EES6","N","Y","INIT","UF",1.0,"INV"
"R-28","2007-11-29T00:00:00","Cr","GW28-08-9146",393.161,"ug/L","REG","EES6","N","Y","INIT","UF",1.0,"INV"
"R-28","2007-11-29T00:00:00","Cr","GW28-08-9166",380.571,"ug/L","REG","EES6","N","Y","INIT","F",1.0,"INV"
"R-28","2007-11-29T00:00:00","Cr","GW28-08-9167",382.882,"ug/L","REG","EES6","N","Y","INIT","F",1.0,"INV"
"R-28","2007-11-29T00:00:00","Cr","GW28-08-9168",377.81,"ug/L","REG","EES6","N","Y","INIT","F",1.0,"INV"
"R-28","2007-11-29T00:00:00","Cr","GW28-08-9169",384.989,"ug/L","REG","EES6","N","Y","INIT","F",1.0,"INV"
"R-28","2007-11-29T00:00:00","Cr","GW28-08-9169",370.0,"ug/L","REG","GELC","Y","Y","INIT","F",1.0,"INV"
"R-28","2007-11-29T00:00:00","Cr","GW28-08-9170",366.996,"ug/L","REG","EES6","N","Y","INIT","F",1.0,"INV"
"R-28","2007-11-29T00:00:00","Cr","GW28-08-9171",377.203,"ug/L","REG","EES6","N","Y","INIT","F",1.0,"INV"
"R-28","2007-11-29T00:00:00","Cr","GW28-08-9172",388.286,"ug/L","REG","EES6","N","Y","INIT","F",1.0,"INV"
"R-28","2007-11-29T00:00:00","Cr","GW28-08-9173",343.444,"ug/L","REG","EES6","N","Y","INIT","F",1.0,"INV"
"R-28","2007-11-29T00:00:00","Cr","GW28-08-9174",377.327,"ug/L","REG","EES6","N","Y","INIT","F",1.0,"INV"
"R-28","2007-11-29T00:00:00","Cr","GW28-08-9175",371.738,"ug/L","REG","EES6","N","Y","INIT","F",1.0,"INV"
"R-28","2007-11-29T00:00:00","Cr","GW28-08-9176",374.945,"ug/L","REG","EES6","N","Y","INIT","F",1.0,"INV"
"R-28","2007-11-29T00:00:00","Cr","GW28-08-9177",384.764,"ug/L","REG","EES6","N","Y","INIT","F",1.0,"INV"
"R-28","2007-11-29T00:00:00","Cr","GW28-08-9178",352.751,"ug/L","REG","EES6","N","Y","INIT","F",1.0,"INV"
"R-28","2007-11-29T00:00:00","Cr","GW28-08-9179",351.444,"ug/L","REG","EES6","N","Y","INIT","F",1.0,"INV"
"R-28","2007-11-29T00:00:00","Cr","GW28-08-9180",310.159,"ug/L","REG","EES6","N","Y","INIT","F",1.0,"INV"
"R-28","2007-11-29T00:00:00","Cr","GW28-08-9181",388.037,"ug/L","REG","EES6","N","Y","INIT","F",1.0,"INV"
"R-28","2007-11-29T00:00:00","Cr","GW28-08-9182",359.155,"ug/L","REG","EES6","N","Y","INIT","F",1.0,"INV"
"R-28","2007-11-29T00:00:00","Cr","GW28-08-9202",396.134,"ug/L","REG","EES6","N","Y","INIT","F",1.0,"INV"
"R-28","2007-11-29T00:00:00","Cr","GW28-08-9203",437.351,"ug/L","REG","EES6","N","Y","INIT","F",1.0,"INV"
"R-28","2007-11-29T00:00:00","Cr","GW28-08-9204",397.133,"ug/L","REG","EES6","N","Y","INIT","F",1.0,"INV"
"R-28","2007-11-29T00:00:00","Cr","GW28-08-9205",415.653,"ug/L","REG","EES6","N","Y","INIT","F",1.0,"INV"
"R-28","2007-11-30T00:00:00","Cr","GW28-08-9147",402.682,"ug/L","REG","EES6","N","Y","INIT","UF",1.0,"INV"
"R-28","2007-11-30T00:00:00","Cr","GW28-08-9147",379.0,"ug/L","REG","GELC","Y","Y","INIT","UF",1.0,"INV"
"R-28","2007-11-30T00:00:00","Cr","GW28-08-9148",388.235,"ug/L","REG","EES6","N","Y","INIT","UF",1.0,"INV"
"R-28","2007-11-30T00:00:00","Cr","GW28-08-9149",395.503,"ug/L","REG","EES6","N","Y","INIT","UF",1.0,"INV"
"R-28","2007-11-30T00:00:00","Cr","GW28-08-9150",392.142,"ug/L","REG","EES6","N","Y","INIT","UF",1.0,"SCR"
"R-28","2007-11-30T00:00:00","Cr","GW28-08-9151",400.226,"ug/L","REG","EES6","N","Y","INIT","UF",1.0,"INV"
"R-28","2007-11-30T00:00:00","Cr","GW28-08-9152",399.903,"ug/L","REG","EES6","N","Y","INIT","UF",1.0,"INV"
"R-28","2007-11-30T00:00:00","Cr","GW28-08-9153",396.122,"ug/L","REG","EES6","N","Y","INIT","UF",1.0,"INV"
"R-28","2007-11-30T00:00:00","Cr","GW28-08-9154",396.091,"ug/L","REG","EES6","N","Y","INIT","UF",1.0,"INV"
"R-28","2007-11-30T00:00:00","Cr","GW28-08-9155",399.692,"ug/L","REG","EES6","N","Y","INIT","UF",1.0,"INV"
"R-28","2007-11-30T00:00:00","Cr","GW28-08-9156",400.296,"ug/L","REG","EES6","N","Y","INIT","UF",1.0,"INV"
"R-28","2007-11-30T00:00:00","Cr","GW28-08-9157",424.347,"ug/L","REG","EES6","N","Y","INIT","UF",1.0,"INV"
"R-28","2007-11-30T00:00:00","Cr","GW28-08-9158",394.444,"ug/L","REG","EES6","N","Y","INIT","UF",1.0,"INV"
"R-28","2007-11-30T00:00:00","Cr","GW28-08-9159",425.885,"ug/L","REG","EES6","N","Y","INIT","UF",1.0,"INV"
"R-28","2007-11-30T00:00:00","Cr","GW28-08-9160",381.414,"ug/L","REG","EES6","N","Y","INIT","UF",1.0,"INV"
"R-28","2007-11-30T00:00:00","Cr","GW28-08-9161",415.429,"ug/L","REG","EES6","N","Y","INIT","UF",1.0,"INV"
"R-28","2007-11-30T00:00:00","Cr","GW28-08-9162",432.731,"ug/L","REG","EES6","N","Y","INIT","UF",1.0,"SCR"
"R-28","2007-11-30T00:00:00","Cr","GW28-08-9162",383.0,"ug/L","REG","GELC","Y","Y","INIT","UF",1.0,"SCR"
"R-28","2007-11-30T00:00:00","Cr","GW28-08-9183",365.524,"ug/L","REG","EES6","N","Y","INIT","F",1.0,"INV"
"R-28","2007-11-30T00:00:00","Cr","GW28-08-9183",369.0,"ug/L","REG","GELC","Y","Y","INIT","F",1.0,"INV"
"R-28","2007-11-30T00:00:00","Cr","GW28-08-9184",406.175,"ug/L","REG","EES6","N","Y","INIT","F",1.0,"INV"
"R-28","2007-11-30T00:00:00","Cr","GW28-08-9185",387.946,"ug/L","REG","EES6","N","Y","INIT","F",1.0,"INV"
"R-28","2007-11-30T00:00:00","Cr","GW28-08-9186",324.057,"ug/L","REG","EES6","N","Y","INIT","F",1.0,"INV"
"R-28","2007-11-30T00:00:00","Cr","GW28-08-9187",332.902,"ug/L","REG","EES6","N","Y","INIT","F",1.0,"INV"
"R-28","2007-11-30T00:00:00","Cr","GW28-08-9188",359.413,"ug/L","REG","EES6","N","Y","INIT","F",1.0,"INV"
"R-28","2007-11-30T00:00:00","Cr","GW28-08-9189",340.608,"ug/L","REG","EES6","N","Y","INIT","F",1.0,"INV"
"R-28","2007-11-30T00:00:00","Cr","GW28-08-9190",316.688,"ug/L","REG","EES6","N","Y","INIT","F",1.0,"INV"
"R-28","2007-11-30T00:00:00","Cr","GW28-08-9191",309.593,"ug/L","REG","EES6","N","Y","INIT","F",1.0,"INV"
"R-28","2007-11-30T00:00:00","Cr","GW28-08-9192",297.756,"ug/L","REG","EES6","N","Y","INIT","F",1.0,"INV"
"R-28","2007-11-30T00:00:00","Cr","GW28-08-9193",396.341,"ug/L","REG","EES6","N","Y","INIT","F",1.0,"INV"
"R-28","2007-11-30T00:00:00","Cr","GW28-08-9194",381.848,"ug/L","REG","EES6","N","Y","INIT","F",1.0,"INV"
"R-28","2007-11-30T00:00:00","Cr","GW28-08-9195",383.306,"ug/L","REG","EES6","N","Y","INIT","F",1.0,"INV"
"R-28","2007-11-30T00:00:00","Cr","GW28-08-9196",385.179,"ug/L","REG","EES6","N","Y","INIT","F",1.0,"INV"
"R-28","2007-11-30T00:00:00","Cr","GW28-08-9197",417.917,"ug/L","REG","EES6","N","Y","INIT","F",1.0,"INV"
"R-28","2007-11-30T00:00:00","Cr","GW28-08-9198",392.232,"ug/L","REG","EES6","N","Y","INIT","F",1.0,"INV"
"R-28","2007-11-30T00:00:00","Cr","GW28-08-9198",381.0,"ug/L","REG","GELC","Y","Y","INIT","F",1.0,"INV"
"R-28","2007-11-30T00:00:00","Cr","GW28-08-9207",406.376,"ug/L","REG","EES6","N","Y","INIT","F",1.0,"INV"
"R-28","2007-11-30T00:00:00","Cr","GW28-08-9208",382.577,"ug/L","REG","EES6","N","Y","INIT","F",1.0,"INV"
"R-28","2008-02-15T00:00:00","Cr","CAMO-08-10441",419.0,"ug/L","REG","GELC","Y","Y","INIT","F",5.0,"INV"
"R-28","2008-02-15T00:00:00","Cr","CAMO-08-10442",391.0,"ug/L","REG","GELC","Y","Y","INIT","UF",5.0,"SCR"
"R-28","2008-05-14T00:00:00","Cr","CAMO-08-12767",438.0,"ug/L","REG","GELC","Y","Y","INIT","F",5.0,"INV"
"R-28","2008-05-14T00:00:00","Cr","CAMO-08-12768",381.0,"ug/L","REG","GELC","N","Y","INIT","UF",5.0,"SCR"
"R-28","2008-05-14T00:00:00","Cr","CAMO-08-12768",393.0,"ug/L","REG","GELC","Y","Y","RE","UF",5.0,"SCR"
"R-28","2008-08-15T00:00:00","Cr","CAMO-08-14542",373.0,"ug/L","REG","GELC","Y","Y","INIT","F",1.0,"INV"
"R-28","2008-08-15T00:00:00","Cr","CAMO-08-14543",322.0,"ug/L","REG","GELC","Y","Y","INIT","UF",1.0,"SCR"
"R-28","2008-11-10T00:00:00","Cr","CAMO-09-808",490.0,"ug/L","REG","GELC","Y","Y","INIT","UF",10.0,"SCR"
"R-28","2008-11-10T00:00:00","Cr","CAMO-09-809",468.0,"ug/L","REG","GELC","Y","Y","INIT","F",10.0,"INV"
"R-28","2009-02-10T00:00:00","Cr","CAMO-09-2625",372.0,"ug/L","REG","GELC","Y","Y","INIT","UF",1.0,"SCR"
"R-28","2009-02-10T00:00:00","Cr","CAMO-09-2626",380.0,"ug/L","REG","GELC","Y","Y","INIT","F",1.0,"INV"
"R-28","2009-05-01T00:00:00","Cr","CAMO-09-8177",427.0,"ug/L","REG","GELC","Y","Y","INIT","UF",5.0,"INV"
"R-28","2009-05-01T00:00:00","Cr","CAMO-09-8178",388.0,"ug/L","REG","GELC","Y","Y","INIT","F",5.0,"INV"
"R-28","2009-08-13T00:00:00","Cr","CAMO-09-9546",395.0,"ug/L","REG","GELC","Y","Y","INIT","UF",1.0,"SCR"
"R-28","2009-08-13T00:00:00","Cr","CAMO-09-9547",383.0,"ug/L","REG","GELC","Y","Y","INIT","F",1.0,"INV"
"R-28","2009-11-05T00:00:00","Cr","CAMO-10-3130",365.0,"ug/L","REG","GELC","Y","Y","INIT","UF",1.0,"INV"
"R-28","2009-11-05T00:00:00","Cr","CAMO-10-3132",358.0,"ug/L","REG","GELC","Y","Y","INIT","F",1.0,"INV"
"R-28","2010-02-03T00:00:00","Cr","CAMO-10-9326",325.0,"ug/L","REG","GELC","Y","Y","INIT","UF",1.0,"SCR"
"R-28","2010-02-03T00:00:00","Cr","CAMO-10-9328",321.0,"ug/L","REG","GELC","Y","Y","INIT","F",1.0,"INV"
"R-28","2010-05-13T00:00:00","Cr","CAMO-10-16764",340.0,"ug/L","REG","GELC","Y","Y","INIT","UF",1.0,"INV"
"R-28","2010-05-13T00:00:00","Cr","CAMO-10-16765",342.0,"ug/L","REG","GELC","Y","Y","INIT","F",1.0,"INV"
"R-28","2010-07-14T00:00:00","Cr","CAMO-10-22859",472.0,"ug/L","REG","GELC","Y","Y","RE","F",10.0,"INV"
"R-28","2010-07-14T00:00:00","Cr","CAMO-10-22859",558.0,"ug/L","REG","GELC","N","Y","INIT","F",20.0,"INV"
"R-28","2010-07-14T00:00:00","Cr","CAMO-10-22860",539.0,"ug/L","REG","GELC","Y","Y","INIT","UF",20.0,"INV"
"R-28","2010-11-10T00:00:00","Cr","CAMO-11-1271",409.0,"ug/L","REG","GELC","Y","Y","INIT","UF",1.0,"SCR"
"R-28","2010-11-10T00:00:00","Cr","CAMO-11-1272",402.0,"ug/L","REG","GELC","Y","Y","INIT","F",1.0,"INV"
"R-28","2011-02-14T00:00:00","Cr","CAMO-11-4598",354.0,"ug/L","REG","GELC","Y","Y","INIT","UF",1.0,"INV"
"R-28","2011-02-14T00:00:00","Cr","CAMO-11-4599",356.0,"ug/L","REG","GELC","Y","Y","INIT","F",1.0,"INV"
"R-28","2011-06-01T00:00:00","Cr","CAMO-11-10704",344.0,"ug/L","REG","GELC","Y","Y","INIT","F",1.0,"INV"
"R-28","2011-06-01T00:00:00","Cr","CAMO-11-10705",367.0,"ug/L","REG","GELC","Y","Y","INIT","UF",1.0,"SCR"
"R-28","2011-08-02T00:00:00","Cr","CAMO-11-24637",413.0,"ug/L","REG","GELC","Y","Y","INIT","UF",1.0,"INV"
"R-28","2011-08-02T00:00:00","Cr","CAMO-11-24638",428.0,"ug/L","REG","GELC","Y","Y","INIT","F",1.0,"INV"
"R-28","2011-11-15T00:00:00","Cr","CAMO-12-1486",445.0,"ug/L","REG","GELC","Y","Y","INIT","UF",5.0,"INV"
"R-28","2011-11-15T00:00:00","Cr","CAMO-12-1487",455.0,"ug/L","REG","GELC","Y","Y","INIT","F",5.0,"INV"
"R-28","2012-02-15T00:00:00","Cr","GW28-12-10141",400.2,"ug/L","REG","EES6","Y","Y","INIT","F",NA,NA
"R-28","2012-02-15T00:00:00","Cr","GW28-12-10181",8.2,"ug/L","REG","EES6","Y","Y","INIT","UF",NA,NA
"R-28","2012-02-15T00:00:00","Cr","GW28-12-10182",6.9,"ug/L","REG","EES6","Y","Y","INIT","UF",NA,NA
"R-28","2012-02-16T00:00:00","Cr","GW28-12-10142",392.8,"ug/L","REG","EES6","Y","Y","INIT","F",NA,NA
"R-28","2012-02-16T00:00:00","Cr","GW28-12-10143",398.3,"ug/L","REG","EES6","Y","Y","INIT","F",NA,NA
"R-28","2012-02-16T00:00:00","Cr","GW28-12-10183",12.2,"ug/L","REG","EES6","Y","Y","INIT","UF",NA,NA
"R-28","2012-02-16T00:00:00","Cr","GW28-12-10184",6.5,"ug/L","REG","EES6","Y","Y","INIT","UF",NA,NA
"R-28","2012-02-16T00:00:00","Cr","GW28-12-10185",8.0,"ug/L","REG","EES6","Y","Y","INIT","UF",NA,NA
"R-28","2012-02-16T00:00:00","Cr","GW28-12-10186",5.4,"ug/L","REG","EES6","Y","Y","INIT","UF",NA,NA
"R-28","2012-02-17T00:00:00","Cr","GW28-12-10144",366.2,"ug/L","REG","EES6","Y","Y","INIT","F",NA,NA
"R-28","2012-02-17T00:00:00","Cr","GW28-12-10145",361.6,"ug/L","REG","EES6","Y","Y","INIT","F",NA,NA
"R-28","2012-02-17T00:00:00","Cr","GW28-12-10146",375.1,"ug/L","REG","EES6","Y","Y","INIT","F",NA,NA
"R-28","2012-02-17T00:00:00","Cr","GW28-12-10187",10.5,"ug/L","REG","EES6","Y","Y","INIT","UF",NA,NA
"R-28","2012-02-17T00:00:00","Cr","GW28-12-10188",4.3,"ug/L","REG","EES6","Y","Y","INIT","UF",NA,NA
"R-28","2012-02-17T00:00:00","Cr","GW28-12-10189",3.2,"ug/L","REG","EES6","Y","Y","INIT","UF",NA,NA
"R-28","2012-02-17T00:00:00","Cr","GW28-12-10190",4.1,"ug/L","REG","EES6","Y","Y","INIT","UF",NA,NA
"R-28","2012-02-17T00:00:00","Cr","GW28-12-10191",2.5,"ug/L","REG","EES6","Y","Y","INIT","UF",NA,NA
"R-28","2012-02-17T00:00:00","Cr","GW28-12-10192",3.9,"ug/L","REG","EES6","Y","Y","INIT","UF",NA,NA
"R-28","2012-02-18T00:00:00","Cr","GW28-12-10147",369.2,"ug/L","REG","EES6","Y","Y","INIT","F",NA,NA
"R-28","2012-02-18T00:00:00","Cr","GW28-12-10148",352.9,"ug/L","REG","EES6","Y","Y","INIT","F",NA,NA
"R-28","2012-02-18T00:00:00","Cr","GW28-12-10193",2.5,"ug/L","REG","EES6","Y","Y","INIT","UF",NA,NA
"R-28","2012-02-18T00:00:00","Cr","GW28-12-10194",4.1,"ug/L","REG","EES6","Y","Y","INIT","UF",NA,NA
"R-28","2012-02-18T00:00:00","Cr","GW28-12-10195",2.2,"ug/L","REG","EES6","Y","Y","INIT","UF",NA,NA
"R-28","2012-02-18T00:00:00","Cr","GW28-12-10196",3.3,"ug/L","REG","EES6","Y","Y","INIT","UF",NA,NA
"R-28","2012-02-19T00:00:00","Cr","GW28-12-10149",350.0,"ug/L","REG","EES6","Y","Y","INIT","F",NA,NA
"R-28","2012-02-19T00:00:00","Cr","GW28-12-10150",353.9,"ug/L","REG","EES6","Y","Y","INIT","F",NA,NA
"R-28","2012-02-19T00:00:00","Cr","GW28-12-10197",2.3,"ug/L","REG","EES6","Y","Y","INIT","UF",NA,NA
"R-28","2012-02-19T00:00:00","Cr","GW28-12-10198",2.8,"ug/L","REG","EES6","Y","Y","INIT","UF",NA,NA
"R-28","2012-02-19T00:00:00","Cr","GW28-12-10199",2.4,"ug/L","REG","EES6","Y","Y","INIT","UF",NA,NA
"R-28","2012-02-19T00:00:00","Cr","GW28-12-10200",2.6,"ug/L","REG","EES6","Y","Y","INIT","UF",NA,NA
"R-28","2012-02-20T00:00:00","Cr","GW28-12-10151",350.5,"ug/L","REG","EES6","Y","Y","INIT","F",NA,NA
"R-28","2012-02-20T00:00:00","Cr","GW28-12-10152",369.6,"ug/L","REG","EES6","Y","Y","INIT","F",NA,NA
"R-28","2012-02-20T00:00:00","Cr","GW28-12-10201",2.3,"ug/L","REG","EES6","Y","Y","INIT","UF",NA,NA
"R-28","2012-02-20T00:00:00","Cr","GW28-12-10202",2.2,"ug/L","REG","EES6","Y","Y","INIT","UF",NA,NA
"R-28","2012-02-20T00:00:00","Cr","GW28-12-10203",2.2,"ug/L","REG","EES6","Y","Y","INIT","UF",NA,NA
"R-28","2012-02-20T00:00:00","Cr","GW28-12-10204",2.2,"ug/L","REG","EES6","Y","Y","INIT","UF",NA,NA
"R-28","2012-02-21T00:00:00","Cr","GW28-12-10153",369.8,"ug/L","REG","EES6","Y","Y","INIT","F",NA,NA
"R-28","2012-02-21T00:00:00","Cr","GW28-12-10154",366.6,"ug/L","REG","EES6","Y","Y","INIT","F",NA,NA
"R-28","2012-02-21T00:00:00","Cr","GW28-12-10205",2.2,"ug/L","REG","EES6","Y","Y","INIT","UF",NA,NA
"R-28","2012-02-21T00:00:00","Cr","GW28-12-10206",2.2,"ug/L","REG","EES6","Y","Y","INIT","UF",NA,NA
"R-28","2012-02-21T00:00:00","Cr","GW28-12-10207",2.2,"ug/L","REG","EES6","Y","Y","INIT","UF",NA,NA
"R-28","2012-02-21T00:00:00","Cr","GW28-12-10208",2.2,"ug/L","REG","EES6","Y","Y","INIT","UF",NA,NA
"R-28","2012-02-22T00:00:00","Cr","GW28-12-10155",366.2,"ug/L","REG","EES6","Y","Y","INIT","F",NA,NA
"R-28","2012-02-22T00:00:00","Cr","GW28-12-10156",349.7,"ug/L","REG","EES6","Y","Y","INIT","F",NA,NA
"R-28","2012-02-22T00:00:00","Cr","GW28-12-10209",2.3,"ug/L","REG","EES6","Y","Y","INIT","UF",NA,NA
"R-28","2012-02-22T00:00:00","Cr","GW28-12-10210",2.2,"ug/L","REG","EES6","Y","Y","INIT","UF",NA,NA
"R-28","2012-02-22T00:00:00","Cr","GW28-12-10211",2.3,"ug/L","REG","EES6","Y","Y","INIT","UF",NA,NA
"R-28","2012-02-22T00:00:00","Cr","GW28-12-10212",2.0,"ug/L","REG","EES6","Y","Y","INIT","UF",NA,NA
"R-28","2012-02-23T00:00:00","Cr","GW28-12-10157",351.3,"ug/L","REG","EES6","Y","Y","INIT","F",NA,NA
"R-28","2012-02-23T00:00:00","Cr","GW28-12-10158",335.7,"ug/L","REG","EES6","Y","Y","INIT","F",NA,NA
"R-28","2012-02-23T00:00:00","Cr","GW28-12-10213",2.5,"ug/L","REG","EES6","Y","Y","INIT","UF",NA,NA
"R-28","2012-02-23T00:00:00","Cr","GW28-12-10214",2.2,"ug/L","REG","EES6","Y","Y","INIT","UF",NA,NA
"R-28","2012-02-23T00:00:00","Cr","GW28-12-10215",3.0,"ug/L","REG","EES6","Y","Y","INIT","UF",NA,NA
"R-28","2012-02-23T00:00:00","Cr","GW28-12-10216",2.2,"ug/L","REG","EES6","Y","Y","INIT","UF",NA,NA
"R-28","2012-02-24T00:00:00","Cr","GW28-12-10159",339.5,"ug/L","REG","EES6","Y","Y","INIT","F",NA,NA
"R-28","2012-02-24T00:00:00","Cr","GW28-12-10160",330.7,"ug/L","REG","EES6","Y","Y","INIT","F",NA,NA
"R-28","2012-02-24T00:00:00","Cr","GW28-12-10217",3.4,"ug/L","REG","EES6","Y","Y","INIT","UF",NA,NA
"R-28","2012-02-24T00:00:00","Cr","GW28-12-10218",2.1,"ug/L","REG","EES6","Y","Y","INIT","UF",NA,NA
"R-28","2012-02-24T00:00:00","Cr","GW28-12-10219",7.2,"ug/L","REG","EES6","Y","Y","INIT","UF",NA,NA
"R-28","2012-02-24T00:00:00","Cr","GW28-12-10220",3.0,"ug/L","REG","EES6","Y","Y","INIT","UF",NA,NA
"R-28","2012-02-25T00:00:00","Cr","GW28-12-10161",372.8,"ug/L","REG","EES6","Y","Y","INIT","F",NA,NA
"R-28","2012-02-25T00:00:00","Cr","GW28-12-10162",334.6,"ug/L","REG","EES6","Y","Y","INIT","F",NA,NA
"R-28","2012-02-25T00:00:00","Cr","GW28-12-10163",5.6,"ug/L","REG","EES6","Y","Y","INIT","F",NA,NA
"R-28","2012-02-25T00:00:00","Cr","GW28-12-10164",311.6,"ug/L","REG","EES6","Y","Y","INIT","F",NA,NA
"R-28","2012-02-25T00:00:00","Cr","GW28-12-10374",5.9,"ug/L","REG","EES6","Y","Y","INIT","UF",NA,NA
"R-28","2012-02-25T00:00:00","Cr","GW28-12-10375",2.4,"ug/L","REG","EES6","Y","Y","INIT","UF",NA,NA
"R-28","2012-02-25T00:00:00","Cr","GW28-12-10376",6.5,"ug/L","REG","EES6","Y","Y","INIT","UF",NA,NA
"R-28","2012-02-25T00:00:00","Cr","GW28-12-10377",2.5,"ug/L","REG","EES6","Y","Y","INIT","UF",NA,NA
"R-28","2012-03-13T00:00:00","Cr","CAMO-12-12027",336.0,"ug/L","REG","GELC","Y","Y","INIT","F",1.0,"INV"
"R-28","2012-05-24T00:00:00","Cr","CAMO-12-14023",351.0,"ug/L","REG","GELC","Y","Y","INIT","F",1.0,"INV"
"R-28","2012-08-08T00:00:00","Cr","CAMO-12-21743",450.0,"ug/L","REG","GELC","Y","Y","INIT","F",1.0,"INV"
"R-28","2012-10-31T00:00:00","Cr","CAMO-13-24260",415.0,"ug/L","REG","GELC","Y","Y","INIT","F",10.0,"INV"
"R-28","2013-02-01T00:00:00","Cr","CAMO-13-28404",4.08,"ug/L","PEB","GELC","Y","Y","INIT","UF",1.0,"QC"
"R-28","2013-02-01T00:00:00","Cr","CAMO-13-28416",433.0,"ug/L","REG","GELC","Y","Y","INIT","F",5.0,"INV"
"R-28","2013-05-06T00:00:00","Cr","CAMO-13-30558",2.1,"ug/L","PEB","GELC","Y","Y","INIT","UF",1.0,"QC"
"R-28","2013-05-06T00:00:00","Cr","CAMO-13-30592",404.0,"ug/L","REG","GELC","Y","Y","INIT","F",1.0,"INV"
"R-28","2013-08-28T00:00:00","Cr","Cr28-13-41261",351.53,"ug/L","REG","EES6","Y","Y","INIT","F",NA,"SCR"
"R-28","2013-08-28T00:00:00","Cr","Cr28-13-41262",341.18,"ug/L","REG","EES6","Y","Y","INIT","F",NA,"SCR"
"R-28","2013-08-30T00:00:00","Cr","Cr28-13-41265",315.12,"ug/L","REG","EES6","Y","Y","INIT","F",NA,"SCR"
"R-28","2013-09-07T00:00:00","Cr","Cr28-13-41342",366.19,"ug/L","REG","EES6","Y","Y","INIT","F",NA,"SCR"
"R-28","2013-09-08T00:00:00","Cr","Cr28-13-41263",338.68,"ug/L","REG","EES6","Y","Y","INIT","F",NA,"SCR"
"R-28","2013-09-09T00:00:00","Cr","Cr28-13-41339",347.79,"ug/L","REG","EES6","Y","Y","INIT","F",NA,"SCR"
"R-28","2013-09-10T00:00:00","Cr","Cr28-13-41345",343.0,"ug/L","REG","EES6","Y","Y","INIT","F",NA,"SCR"
"R-28","2013-09-11T00:00:00","Cr","Cr28-13-41267",333.85,"ug/L","REG","EES6","Y","Y","INIT","F",NA,"SCR"
"R-28","2013-09-12T00:00:00","Cr","Cr28-13-41268",319.37,"ug/L","REG","EES6","Y","Y","INIT","F",NA,"SCR"
"R-28","2013-09-15T00:00:00","Cr","Cr28-13-41340",325.1,"ug/L","REG","EES6","Y","Y","INIT","F",NA,"SCR"
"R-28","2013-09-16T00:00:00","Cr","Cr28-13-41344",317.12,"ug/L","REG","EES6","Y","Y","INIT","F",NA,"SCR"
"R-28","2013-09-17T00:00:00","Cr","Cr28-13-41483",321.18,"ug/L","REG","EES6","Y","Y","INIT","F",NA,"SCR"
"R-28","2013-09-18T00:00:00","Cr","Cr28-13-41486",320.17,"ug/L","REG","EES6","Y","Y","INIT","F",NA,"SCR"
"R-28","2013-09-19T00:00:00","Cr","Cr28-13-41485",325.42,"ug/L","REG","EES6","Y","Y","INIT","F",NA,"SCR"
"R-28","2013-09-20T00:00:00","Cr","Cr28-13-41480",316.61,"ug/L","REG","EES6","Y","Y","INIT","F",NA,"SCR"
"R-28","2013-09-21T00:00:00","Cr","Cr28-13-41482",313.76,"ug/L","REG","EES6","Y","Y","INIT","F",NA,"SCR"
"R-28","2013-09-22T00:00:00","Cr","Cr28-13-41481",309.36,"ug/L","REG","EES6","Y","Y","INIT","F",NA,"SCR"
"R-28","2013-09-23T00:00:00","Cr","Cr28-13-41484",321.76,"ug/L","REG","EES6","Y","Y","INIT","F",NA,"SCR"
"R-28","2013-09-24T00:00:00","Cr","Cr28-13-41487",324.41,"ug/L","REG","EES6","Y","Y","INIT","F",NA,"SCR"
"R-28","2013-09-25T00:00:00","Cr","Cr28-13-42049",321.07,"ug/L","REG","EES6","Y","Y","INIT","F",NA,NA
"R-28","2013-09-26T00:00:00","Cr","Cr28-13-41341",299.85,"ug/L","REG","EES6","Y","Y","INIT","F",NA,"SCR"
"R-28","2013-09-27T00:00:00","Cr","Cr28-13-42053",293.58,"ug/L","REG","EES6","Y","Y","INIT","F",NA,"SCR"
"R-28","2013-09-28T00:00:00","Cr","Cr28-13-42054",311.61,"ug/L","REG","EES6","Y","Y","INIT","F",NA,"SCR"
"R-28","2013-09-29T00:00:00","Cr","Cr28-13-42050",294.75,"ug/L","REG","EES6","Y","Y","INIT","F",NA,NA
"R-28","2013-09-30T00:00:00","Cr","Cr28-13-41343",293.56,"ug/L","REG","EES6","Y","Y","INIT","F",NA,"SCR"
"R-28","2013-10-01T00:00:00","Cr","Cr28-13-42051",287.15,"ug/L","REG","EES6","Y","Y","INIT","F",NA,NA
"R-28","2013-10-02T00:00:00","Cr","Cr28-13-42055",293.47,"ug/L","REG","EES6","Y","Y","INIT","F",NA,"SCR"
"R-28","2013-10-03T00:00:00","Cr","Cr28-13-42048",297.85,"ug/L","REG","EES6","Y","Y","INIT","F",NA,NA
"R-28","2013-10-04T00:00:00","Cr","Cr28-13-42278",288.94,"ug/L","REG","EES6","Y","Y","INIT","F",NA,"SCR"
"R-28","2013-10-05T00:00:00","Cr","Cr28-13-42281",297.18,"ug/L","REG","EES6","Y","Y","INIT","F",NA,"SCR"
"R-28","2013-10-06T00:00:00","Cr","Cr28-13-42282",305.44,"ug/L","REG","EES6","Y","Y","INIT","F",NA,"SCR"
"R-28","2013-10-07T00:00:00","Cr","Cr28-13-42280",268.22,"ug/L","REG","EES6","Y","Y","INIT","F",NA,"SCR"
"R-28","2013-10-08T00:00:00","Cr","Cr28-13-42283",273.8,"ug/L","REG","EES6","Y","Y","INIT","F",NA,"SCR"
"R-28","2013-10-09T00:00:00","Cr","Cr28-13-42284",283.37,"ug/L","REG","EES6","Y","Y","INIT","F",NA,"SCR"
"R-28","2013-10-11T00:00:00","Cr","Cr28-13-42279",281.19,"ug/L","REG","EES6","Y","Y","INIT","F",NA,"SCR"
"R-28","2013-10-12T00:00:00","Cr","Cr28-13-42400",293.93,"ug/L","REG","EES6","Y","Y","INIT","F",NA,"SCR"
"R-28","2013-10-13T00:00:00","Cr","Cr28-13-42402",290.95,"ug/L","REG","EES6","Y","Y","INIT","F",NA,"SCR"
"R-28","2013-10-14T00:00:00","Cr","Cr28-13-42403",290.95,"ug/L","REG","EES6","Y","Y","INIT","F",NA,"SCR"
"R-28","2013-10-15T00:00:00","Cr","Cr28-13-42404",293.05,"ug/L","REG","EES6","Y","Y","INIT","F",NA,"SCR"
"R-28","2013-10-16T00:00:00","Cr","Cr28-13-42405",295.17,"ug/L","REG","EES6","Y","Y","INIT","F",NA,"SCR"
"R-28","2013-10-17T00:00:00","Cr","Cr28-13-42401",300.13,"ug/L","REG","EES6","Y","Y","INIT","F",NA,"SCR"
"R-28","2013-10-18T00:00:00","Cr","Cr28-13-42406",282.57,"ug/L","REG","EES6","Y","Y","INIT","F",NA,"SCR"
"R-28","2013-10-19T00:00:00","Cr","Cr28-13-42407",288.5,"ug/L","REG","EES6","Y","Y","INIT","F",NA,"SCR"
"R-28","2013-10-20T00:00:00","Cr","Cr28-13-42408",298.93,"ug/L","REG","EES6","Y","Y","INIT","F",NA,"SCR"
"R-28","2013-10-21T00:00:00","Cr","Cr28-13-42409",292.36,"ug/L","REG","EES6","Y","Y","INIT","F",NA,"SCR"
"R-28","2013-10-22T00:00:00","Cr","Cr28-13-42552",286.74,"ug/L","REG","EES6","Y","Y","INIT","F",NA,"SCR"
"R-28","2013-10-23T00:00:00","Cr","Cr28-13-42553",275.18,"ug/L","REG","EES6","Y","Y","INIT","F",NA,"SCR"
"R-28","2013-10-24T00:00:00","Cr","Cr28-13-42554",291.97,"ug/L","REG","EES6","Y","Y","INIT","F",NA,"SCR"
"R-28","2013-10-25T00:00:00","Cr","Cr28-13-42555",269.26,"ug/L","REG","EES6","Y","Y","INIT","F",NA,"SCR"
"R-28","2013-10-26T00:00:00","Cr","Cr28-13-42556",260.22,"ug/L","REG","EES6","Y","Y","INIT","F",NA,"SCR"
"R-28","2013-10-27T00:00:00","Cr","Cr28-13-42557",258.71,"ug/L","REG","EES6","Y","Y","INIT","F",NA,"SCR"
"R-28","2013-10-28T00:00:00","Cr","Cr28-13-42558",266.16,"ug/L","REG","EES6","Y","Y","INIT","F",NA,"SCR"
"R-28","2013-10-29T00:00:00","Cr","Cr28-13-42559",291.0,"ug/L","REG","EES6","Y","Y","INIT","F",NA,"SCR"
"R-28","2013-10-30T00:00:00","Cr","Cr28-13-45579",280.22,"ug/L","REG","EES6","Y","Y","INIT","F",NA,NA
"R-28","2013-10-31T00:00:00","Cr","Cr28-13-45580",273.61,"ug/L","REG","EES6","Y","Y","INIT","F",NA,NA
"R-28","2013-11-01T00:00:00","Cr","Cr28-13-45581",284.97,"ug/L","REG","EES6","Y","Y","INIT","F",NA,NA
"R-28","2013-11-02T00:00:00","Cr","Cr28-13-45582",300.92,"ug/L","REG","EES6","Y","Y","INIT","F",NA,NA
"R-28","2013-11-03T00:00:00","Cr","Cr28-13-45583",287.14,"ug/L","REG","EES6","Y","Y","INIT","F",NA,NA
"R-28","2013-11-04T00:00:00","Cr","Cr28-13-45584",301.23,"ug/L","REG","EES6","Y","Y","INIT","F",NA,NA
"R-28","2013-11-05T00:00:00","Cr","Cr28-13-45585",298.87,"ug/L","REG","EES6","Y","Y","INIT","F",NA,NA
"R-28","2013-11-06T00:00:00","Cr","Cr28-13-45909",299.97,"ug/L","REG","EES6","Y","Y","INIT","F",NA,"SCR"
"R-28","2013-11-07T00:00:00","Cr","Cr28-13-45911",252.9,"ug/L","REG","EES6","Y","Y","INIT","F",NA,"SCR"
"R-28","2013-11-08T00:00:00","Cr","Cr28-13-45912",288.88,"ug/L","REG","EES6","Y","Y","INIT","F",NA,"SCR"
"R-28","2013-11-09T00:00:00","Cr","Cr28-13-45914",287.93,"ug/L","REG","EES6","Y","Y","INIT","F",NA,"SCR"
"R-28","2013-11-10T00:00:00","Cr","Cr28-13-45913",291.79,"ug/L","REG","EES6","Y","Y","INIT","F",NA,"SCR"
"R-28","2013-11-12T00:00:00","Cr","Cr28-13-45916",288.27,"ug/L","REG","EES6","Y","Y","INIT","F",NA,"SCR"
"R-28","2013-11-13T00:00:00","Cr","Cr28-13-45915",295.2,"ug/L","REG","EES6","Y","Y","INIT","F",NA,"SCR"
"R-28","2013-11-14T00:00:00","Cr","Cr28-13-45910",287.58,"ug/L","REG","EES6","Y","Y","INIT","F",NA,"SCR"
"R-28","2013-11-15T00:00:00","Cr","Cr28-13-49232",281.75,"ug/L","REG","EES6","Y","Y","INIT","F",NA,"SCR"
"R-28","2013-11-16T00:00:00","Cr","Cr28-13-49233",278.25,"ug/L","REG","EES6","Y","Y","INIT","F",NA,"SCR"
"R-28","2013-11-17T00:00:00","Cr","Cr28-13-49234",285.72,"ug/L","REG","EES6","Y","Y","INIT","F",NA,"SCR"
"R-28","2013-11-18T00:00:00","Cr","Cr28-13-49235",293.3,"ug/L","REG","EES6","Y","Y","INIT","F",NA,"SCR"
"R-28","2013-11-19T00:00:00","Cr","Cr28-13-49236",286.44,"ug/L","REG","EES6","Y","Y","INIT","F",NA,"SCR"
"R-28","2013-11-20T00:00:00","Cr","Cr28-13-49237",272.39,"ug/L","REG","EES6","Y","Y","INIT","F",NA,"SCR"
"R-28","2013-11-21T00:00:00","Cr","Cr28-13-49238",288.71,"ug/L","REG","EES6","Y","Y","INIT","F",NA,"SCR"
"R-28","2013-11-22T00:00:00","Cr","Cr28-13-49239",285.01,"ug/L","REG","EES6","Y","Y","INIT","F",NA,"SCR"
"R-28","2013-11-23T00:00:00","Cr","Cr28-14-49437",277.77,"ug/L","REG","EES6","Y","Y","INIT","F",NA,"SCR"
"R-28","2013-11-25T00:00:00","Cr","Cr28-14-49438",271.56,"ug/L","REG","EES6","Y","Y","INIT","F",NA,"SCR"
"R-28","2013-11-26T00:00:00","Cr","Cr28-14-49439",259.06,"ug/L","REG","EES6","Y","Y","INIT","F",NA,"SCR"
"R-28","2013-11-27T00:00:00","Cr","Cr28-14-49449",274.54,"ug/L","REG","EES6","Y","Y","INIT","F",NA,"SCR"
"R-28","2013-12-02T00:00:00","Cr","Cr28-14-49451",268.83,"ug/L","REG","EES6","Y","Y","INIT","F",NA,"SCR"
"R-28","2013-12-03T00:00:00","Cr","Cr28-14-49450",263.62,"ug/L","REG","EES6","Y","Y","INIT","F",NA,"SCR"
"R-28","2013-12-04T00:00:00","Cr","Cr28-14-49440",264.8,"ug/L","REG","EES6","Y","Y","INIT","F",NA,"SCR"
"R-28","2013-12-05T00:00:00","Cr","Cr28-14-49441",294.02,"ug/L","REG","EES6","Y","Y","INIT","F",NA,"SCR"
"R-28","2013-12-06T00:00:00","Cr","Cr28-14-49444",302.43,"ug/L","REG","EES6","Y","Y","INIT","F",NA,"SCR"
"R-28","2013-12-09T00:00:00","Cr","Cr28-14-49443",301.72,"ug/L","REG","EES6","Y","Y","INIT","F",NA,"SCR"
"R-28","2013-12-11T00:00:00","Cr","Cr28-14-49442",294.33,"ug/L","REG","EES6","Y","Y","INIT","F",NA,"SCR"
"R-28","2013-12-13T00:00:00","Cr","Cr28-14-49446",301.89,"ug/L","REG","EES6","Y","Y","INIT","F",NA,"SCR"
"R-28","2013-12-16T00:00:00","Cr","Cr28-14-49447",304.41,"ug/L","REG","EES6","Y","Y","INIT","F",NA,"SCR"
"R-28","2013-12-18T00:00:00","Cr","Cr28-14-49623",303.91,"ug/L","REG","EES6","Y","Y","INIT","F",NA,"SCR"
"R-28","2013-12-20T00:00:00","Cr","Cr28-14-49619",311.11,"ug/L","REG","EES6","Y","Y","INIT","F",NA,"SCR"
"R-28","2014-01-07T00:00:00","Cr","Cr28-14-49625",328.21,"ug/L","REG","EES6","Y","Y","INIT","F",NA,"SCR"
"R-28","2014-01-08T00:00:00","Cr","Cr28-14-49626",327.52,"ug/L","REG","EES6","Y","Y","INIT","F",NA,"SCR"
"R-28","2014-01-10T00:00:00","Cr","Cr28-14-49622",329.01,"ug/L","REG","EES6","Y","Y","INIT","F",NA,"SCR"
"R-28","2014-01-13T00:00:00","Cr","Cr28-14-49621",326.75,"ug/L","REG","EES6","Y","Y","INIT","F",NA,"SCR"
"R-28","2014-01-22T00:00:00","Cr","Cr28-14-49448",334.24,"ug/L","REG","EES6","Y","Y","INIT","F",NA,"SCR"
"R-28","2014-01-27T00:00:00","Cr","Cr28-14-49624",330.97,"ug/L","REG","EES6","Y","Y","INIT","F",NA,"SCR"
"R-28","2014-02-03T00:00:00","Cr","Cr28-14-49620",325.98,"ug/L","REG","EES6","Y","Y","INIT","F",NA,"SCR"
"R-28","2014-02-10T00:00:00","Cr","Cr28-14-49445",297.24,"ug/L","REG","EES6","Y","Y","INIT","F",NA,"SCR"
"R-28","2014-02-18T00:00:00","Cr","Cr28-14-49618",305.45,"ug/L","REG","EES6","Y","Y","INIT","F",NA,"SCR"
"R-28","2014-02-24T00:00:00","Cr","Cr28-14-55775",317.04,"ug/L","REG","EES6","Y","Y","INIT","F",NA,"REHAB"
"R-28","2014-03-03T00:00:00","Cr","Cr28-14-55776",317.43,"ug/L","REG","EES6","Y","Y","INIT","F",NA,"REHAB"
"R-28","2014-05-06T00:00:00","Cr","CAMO-14-75862",339.0,"ug/L","REG","GELC","Y","Y","INIT","F",1.0,"TEST"
"R-28","2014-05-21T00:00:00","Cr","TRR-28-14-58461",128.32,"ug/L","REG","EES6","Y","Y","INIT","UF",NA,"TRACER "
"R-28","2014-05-21T00:00:00","Cr","TRR-28-14-58462",43.88,"ug/L","REG","EES6","Y","Y","INIT","UF",NA,"TRACER "
"R-28","2014-05-21T00:00:00","Cr","TRR-28-14-58463",23.31,"ug/L","REG","EES6","Y","Y","INIT","UF",NA,"TRACER "
"R-28","2014-05-21T00:00:00","Cr","TRR-28-14-58464",12.82,"ug/L","REG","EES6","Y","Y","INIT","UF",NA,"TRACER "
"R-28","2014-05-21T00:00:00","Cr","TRR-28-14-58465",7.78,"ug/L","REG","EES6","Y","Y","INIT","UF",NA,"TRACER "
"R-28","2014-05-21T00:00:00","Cr","TRR-28-14-58466",6.18,"ug/L","REG","EES6","Y","Y","INIT","UF",NA,"TRACER "
"R-28","2014-05-21T00:00:00","Cr","TRR-28-14-58467",5.09,"ug/L","REG","EES6","Y","Y","INIT","UF",NA,"TRACER "
"R-28","2014-05-21T00:00:00","Cr","TRR-28-14-58468",4.43,"ug/L","REG","EES6","Y","Y","INIT","UF",NA,"TRACER "
"R-28","2014-05-21T00:00:00","Cr","TRR-28-14-58470",3.83,"ug/L","REG","EES6","Y","Y","INIT","UF",NA,"TRACER "
"R-28","2014-05-21T00:00:00","Cr","TRR-28-14-58471",2.67,"ug/L","REG","EES6","Y","Y","INIT","UF",NA,"TRACER "
"R-28","2014-05-21T00:00:00","Cr","TRR-28-14-58472",2.63,"ug/L","REG","EES6","Y","Y","INIT","UF",NA,"TRACER "
"R-28","2014-05-21T00:00:00","Cr","TRR-28-14-58473",3.04,"ug/L","REG","EES6","Y","Y","INIT","UF",NA,"TRACER "
"R-28","2014-05-21T00:00:00","Cr","TRR-28-14-58474",3.78,"ug/L","REG","EES6","Y","Y","INIT","UF",NA,"TRACER "
"R-28","2014-05-21T00:00:00","Cr","TRR-28-14-58475",3.6,"ug/L","REG","EES6","Y","Y","INIT","UF",NA,"TRACER "
"R-28","2014-05-21T00:00:00","Cr","TRR-28-14-58476",2.9,"ug/L","REG","EES6","Y","Y","INIT","UF",NA,"TRACER "
"R-28","2014-05-21T00:00:00","Cr","TRR-28-14-58635",1.88,"ug/L","REG","EES6","Y","Y","INIT","UF",NA,"TRACER "
"R-28","2014-05-21T00:00:00","Cr","TRR-28-14-58637",46.4,"ug/L","REG","EES6","Y","Y","INIT","UF",NA,"TRACER "
"R-28","2014-05-22T00:00:00","Cr","TRR-28-14-58477",3.05,"ug/L","REG","EES6","Y","Y","INIT","UF",NA,"TRACER "
"R-28","2014-05-22T00:00:00","Cr","TRR-28-14-58478",2.8,"ug/L","REG","EES6","Y","Y","INIT","UF",NA,"TRACER "
"R-28","2014-05-22T00:00:00","Cr","TRR-28-14-58479",2.4,"ug/L","REG","EES6","Y","Y","INIT","UF",NA,"TRACER "
"R-28","2014-05-22T00:00:00","Cr","TRR-28-14-58480",3.45,"ug/L","REG","EES6","Y","Y","INIT","UF",NA,"TRACER "
"R-28","2014-05-22T00:00:00","Cr","TRR-28-14-58481",3.19,"ug/L","REG","EES6","Y","Y","INIT","UF",NA,"TRACER "
"R-28","2014-05-22T00:00:00","Cr","TRR-28-14-58482",2.74,"ug/L","REG","EES6","Y","Y","INIT","UF",NA,"TRACER "
"R-28","2014-05-22T00:00:00","Cr","TRR-28-14-58483",8.26,"ug/L","REG","EES6","Y","Y","INIT","UF",NA,"TRACER "
"R-28","2014-05-22T00:00:00","Cr","TRR-28-14-58484",19.85,"ug/L","REG","EES6","Y","Y","INIT","UF",NA,"TRACER "
"R-28","2014-05-22T00:00:00","Cr","TRR-28-14-58485",33.19,"ug/L","REG","EES6","Y","Y","INIT","UF",NA,"TRACER "
"R-28","2014-05-22T00:00:00","Cr","TRR-28-14-58486",34.9,"ug/L","REG","EES6","Y","Y","INIT","UF",NA,"TRACER "
"R-28","2014-05-22T00:00:00","Cr","TRR-28-14-58487",7.29,"ug/L","REG","EES6","Y","Y","INIT","UF",NA,"TRACER "
"R-28","2014-05-22T00:00:00","Cr","TRR-28-14-58488",5.73,"ug/L","REG","EES6","Y","Y","INIT","UF",NA,"TRACER "
"R-28","2014-05-22T00:00:00","Cr","TRR-28-14-58489",7.66,"ug/L","REG","EES6","Y","Y","INIT","UF",NA,"TRACER "
"R-28","2014-05-22T00:00:00","Cr","TRR-28-14-58490",6.15,"ug/L","REG","EES6","Y","Y","INIT","UF",NA,"TRACER "
"R-28","2014-05-22T00:00:00","Cr","TRR-28-14-58491",7.73,"ug/L","REG","EES6","Y","Y","INIT","UF",NA,"TRACER "
"R-28","2014-05-22T00:00:00","Cr","TRR-28-14-58492",9.52,"ug/L","REG","EES6","Y","Y","INIT","UF",NA,"TRACER "
"R-28","2014-05-23T00:00:00","Cr","TRR-28-14-58493",5.7,"ug/L","REG","EES6","Y","Y","INIT","UF",NA,"TRACER "
"R-28","2014-05-23T00:00:00","Cr","TRR-28-14-58494",7.31,"ug/L","REG","EES6","Y","Y","INIT","UF",NA,"TRACER "
"R-28","2014-05-23T00:00:00","Cr","TRR-28-14-58495",6.97,"ug/L","REG","EES6","Y","Y","INIT","UF",NA,"TRACER "
"R-28","2014-05-23T00:00:00","Cr","TRR-28-14-58496",7.85,"ug/L","REG","EES6","Y","Y","INIT","UF",NA,"TRACER "
"R-28","2014-05-23T00:00:00","Cr","TRR-28-14-58497",7.95,"ug/L","REG","EES6","Y","Y","INIT","UF",NA,"TRACER "
"R-28","2014-05-23T00:00:00","Cr","TRR-28-14-58498",7.26,"ug/L","REG","EES6","Y","Y","INIT","UF",NA,"TRACER "
"R-28","2014-05-23T00:00:00","Cr","TRR-28-14-58499",9.94,"ug/L","REG","EES6","Y","Y","INIT","UF",NA,"TRACER "
"R-28","2014-05-23T00:00:00","Cr","TRR-28-14-58500",11.13,"ug/L","REG","EES6","Y","Y","INIT","UF",NA,"TRACER "
"R-28","2014-05-23T00:00:00","Cr","TRR-28-14-58501",10.79,"ug/L","REG","EES6","Y","Y","INIT","UF",NA,"TRACER "
"R-28","2014-05-23T00:00:00","Cr","TRR-28-14-58502",10.15,"ug/L","REG","EES6","Y","Y","INIT","UF",NA,"TRACER "
"R-28","2014-05-23T00:00:00","Cr","TRR-28-14-58503",12.48,"ug/L","REG","EES6","Y","Y","INIT","UF",NA,"TRACER "
"R-28","2014-05-23T00:00:00","Cr","TRR-28-14-58504",13.4,"ug/L","REG","EES6","Y","Y","INIT","UF",NA,"TRACER "
"R-28","2014-05-23T00:00:00","Cr","TRR-28-14-58505",14.95,"ug/L","REG","EES6","Y","Y","INIT","UF",NA,"TRACER "
"R-28","2014-05-24T00:00:00","Cr","TRR-28-14-58506",15.16,"ug/L","REG","EES6","Y","Y","INIT","UF",NA,"TRACER "
"R-28","2014-05-24T00:00:00","Cr","TRR-28-14-58507",15.98,"ug/L","REG","EES6","Y","Y","INIT","UF",NA,"TRACER "
"R-28","2014-05-24T00:00:00","Cr","TRR-28-14-58508",16.95,"ug/L","REG","EES6","Y","Y","INIT","UF",NA,"TRACER "
"R-28","2014-05-24T00:00:00","Cr","TRR-28-14-58509",15.19,"ug/L","REG","EES6","Y","Y","INIT","UF",NA,"TRACER "
"R-28","2014-05-24T00:00:00","Cr","TRR-28-14-58510",16.1,"ug/L","REG","EES6","Y","Y","INIT","UF",NA,"TRACER "
"R-28","2014-05-24T00:00:00","Cr","TRR-28-14-58511",15.48,"ug/L","REG","EES6","Y","Y","INIT","UF",NA,"TRACER "
"R-28","2014-05-24T00:00:00","Cr","TRR-28-14-58512",12.22,"ug/L","REG","EES6","Y","Y","INIT","UF",NA,"TRACER "
"R-28","2014-05-24T00:00:00","Cr","TRR-28-14-58513",14.61,"ug/L","REG","EES6","Y","Y","INIT","UF",NA,"TRACER "
"R-28","2014-05-24T00:00:00","Cr","TRR-28-14-58514",15.12,"ug/L","REG","EES6","Y","Y","INIT","UF",NA,"TRACER "
"R-28","2014-05-25T00:00:00","Cr","TRR-28-14-58515",14.47,"ug/L","REG","EES6","Y","Y","INIT","UF",NA,"TRACER "
"R-28","2014-05-25T00:00:00","Cr","TRR-28-14-58516",14.69,"ug/L","REG","EES6","Y","Y","INIT","UF",NA,"TRACER "
"R-28","2014-05-25T00:00:00","Cr","TRR-28-14-58517",16.41,"ug/L","REG","EES6","Y","Y","INIT","UF",NA,"TRACER "
"R-28","2014-05-25T00:00:00","Cr","TRR-28-14-58518",18.07,"ug/L","REG","EES6","Y","Y","INIT","UF",NA,"TRACER "
"R-28","2014-05-25T00:00:00","Cr","TRR-28-14-58519",16.96,"ug/L","REG","EES6","Y","Y","INIT","UF",NA,"TRACER "
"R-28","2014-05-25T00:00:00","Cr","TRR-28-14-58520",15.05,"ug/L","REG","EES6","Y","Y","INIT","UF",NA,"TRACER "
"R-28","2014-05-25T00:00:00","Cr","TRR-28-14-58521",20.03,"ug/L","REG","EES6","Y","Y","INIT","UF",NA,"TRACER "
"R-28","2014-05-25T00:00:00","Cr","TRR-28-14-58522",20.48,"ug/L","REG","EES6","Y","Y","INIT","UF",NA,"TRACER "
"R-28","2014-05-26T00:00:00","Cr","TRR-28-14-58523",21.65,"ug/L","REG","EES6","Y","Y","INIT","UF",NA,"TRACER "
"R-28","2014-05-26T00:00:00","Cr","TRR-28-14-58524",24.15,"ug/L","REG","EES6","Y","Y","INIT","UF",NA,"TRACER "
"R-28","2014-05-26T00:00:00","Cr","TRR-28-14-58525",16.15,"ug/L","REG","EES6","Y","Y","INIT","UF",NA,"TRACER "
"R-28","2014-05-26T00:00:00","Cr","TRR-28-14-58526",19.36,"ug/L","REG","EES6","Y","Y","INIT","UF",NA,"TRACER "
"R-28","2014-05-26T00:00:00","Cr","TRR-28-14-58527",20.38,"ug/L","REG","EES6","Y","Y","INIT","UF",NA,"TRACER "
"R-28","2014-05-26T00:00:00","Cr","TRR-28-14-58528",20.79,"ug/L","REG","EES6","Y","Y","INIT","UF",NA,"TRACER "
"R-28","2014-05-26T00:00:00","Cr","TRR-28-14-58529",18.22,"ug/L","REG","EES6","Y","Y","INIT","UF",NA,"TRACER "
"R-28","2014-05-26T00:00:00","Cr","TRR-28-14-58530",25.26,"ug/L","REG","EES6","Y","Y","INIT","UF",NA,"TRACER "
"R-28","2014-05-27T00:00:00","Cr","TRR-28-14-58531",49.54,"ug/L","REG","EES6","Y","Y","INIT","UF",NA,"TRACER "
"R-28","2014-05-27T00:00:00","Cr","TRR-28-14-58533",38.51,"ug/L","REG","EES6","Y","Y","INIT","UF",NA,"TRACER "
"R-28","2014-05-27T00:00:00","Cr","TRR-28-14-58534",60.75,"ug/L","REG","EES6","Y","Y","INIT","UF",NA,"TRACER "
"R-28","2014-05-27T00:00:00","Cr","TRR-28-14-58535",63.65,"ug/L","REG","EES6","Y","Y","INIT","UF",NA,"TRACER "
"R-28","2014-05-27T00:00:00","Cr","TRR-28-14-58536",61.57,"ug/L","REG","EES6","Y","Y","INIT","UF",NA,"TRACER "
"R-28","2014-05-28T00:00:00","Cr","TRR-28-14-58537",49.29,"ug/L","REG","EES6","Y","Y","INIT","UF",NA,"TRACER "
"R-28","2014-05-28T00:00:00","Cr","TRR-28-14-58538",52.32,"ug/L","REG","EES6","Y","Y","INIT","UF",NA,"TRACER "
"R-28","2014-05-28T00:00:00","Cr","TRR-28-14-58539",61.49,"ug/L","REG","EES6","Y","Y","INIT","UF",NA,"TRACER "
"R-28","2014-05-28T00:00:00","Cr","TRR-28-14-58540",75.48,"ug/L","REG","EES6","Y","Y","INIT","UF",NA,"TRACER "
"R-28","2014-05-28T00:00:00","Cr","TRR-28-14-58541",83.71,"ug/L","REG","EES6","Y","Y","INIT","UF",NA,"TRACER "
"R-28","2014-05-28T00:00:00","Cr","TRR-28-14-58542",82.72,"ug/L","REG","EES6","Y","Y","INIT","UF",NA,"TRACER "
"R-28","2014-05-28T00:00:00","Cr","TRR-28-14-58543",89.44,"ug/L","REG","EES6","Y","Y","INIT","UF",NA,"TRACER "
"R-28","2014-05-28T00:00:00","Cr","TRR-28-14-58544",92.88,"ug/L","REG","EES6","Y","Y","INIT","UF",NA,"TRACER "
"R-28","2014-05-28T00:00:00","Cr","TRR-28-14-58545",98.23,"ug/L","REG","EES6","Y","Y","INIT","UF",NA,"TRACER "
"R-28","2014-05-28T00:00:00","Cr","TRR-28-14-58546",102.96,"ug/L","REG","EES6","Y","Y","INIT","UF",NA,"TRACER "
"R-28","2014-05-28T00:00:00","Cr","TRR-28-14-58547",104.61,"ug/L","REG","EES6","Y","Y","INIT","UF",NA,"TRACER "
"R-28","2014-05-28T00:00:00","Cr","TRR-28-14-58548",109.0,"ug/L","REG","EES6","Y","Y","INIT","UF",NA,"TRACER "
"R-28","2014-05-28T00:00:00","Cr","TRR-28-14-58549",115.16,"ug/L","REG","EES6","Y","Y","INIT","UF",NA,"TRACER "
"R-28","2014-05-28T00:00:00","Cr","TRR-28-14-58550",120.0,"ug/L","REG","EES6","Y","Y","INIT","UF",NA,"TRACER "
"R-28","2014-05-28T00:00:00","Cr","TRR-28-14-58551",126.0,"ug/L","REG","EES6","Y","Y","INIT","UF",NA,"TRACER "
"R-28","2014-05-28T00:00:00","Cr","TRR-28-14-58552",132.0,"ug/L","REG","EES6","Y","Y","INIT","UF",NA,"TRACER "
"R-28","2014-05-28T00:00:00","Cr","TRR-28-14-58553",140.0,"ug/L","REG","EES6","Y","Y","INIT","UF",NA,"TRACER "
"R-28","2014-05-28T00:00:00","Cr","TRR-28-14-58554",142.6,"ug/L","REG","EES6","Y","Y","INIT","UF",NA,"TRACER "
"R-28","2014-05-28T00:00:00","Cr","TRR-28-14-58555",141.5,"ug/L","REG","EES6","Y","Y","INIT","UF",NA,"TRACER "
"R-28","2014-05-28T00:00:00","Cr","TRR-28-14-58556",151.4,"ug/L","REG","EES6","Y","Y","INIT","UF",NA,"TRACER "
"R-28","2014-05-28T00:00:00","Cr","TRR-28-14-58557",148.58,"ug/L","REG","EES6","Y","Y","INIT","UF",NA,"TRACER "
"R-28","2014-05-28T00:00:00","Cr","TRR-28-14-58558",156.8,"ug/L","REG","EES6","Y","Y","INIT","UF",NA,"TRACER "
"R-28","2014-05-28T00:00:00","Cr","TRR-28-14-58559",159.0,"ug/L","REG","EES6","Y","Y","INIT","UF",NA,"TRACER "
"R-28","2014-05-28T00:00:00","Cr","TRR-28-14-58560",171.88,"ug/L","REG","EES6","Y","Y","INIT","UF",NA,"TRACER "
"R-28","2014-05-28T00:00:00","Cr","TRR-28-14-58561",172.74,"ug/L","REG","EES6","Y","Y","INIT","UF",NA,"TRACER "
"R-28","2014-05-28T00:00:00","Cr","TRR-28-14-58562",177.81,"ug/L","REG","EES6","Y","Y","INIT","UF",NA,"TRACER "
"R-28","2014-05-28T00:00:00","Cr","TRR-28-14-58563",182.05,"ug/L","REG","EES6","Y","Y","INIT","UF",NA,"TRACER "
"R-28","2014-05-28T00:00:00","Cr","TRR-28-14-58564",194.86,"ug/L","REG","EES6","Y","Y","INIT","UF",NA,"TRACER "
"R-28","2014-05-28T00:00:00","Cr","TRR-28-14-58565",206.87,"ug/L","REG","EES6","Y","Y","INIT","UF",NA,"TRACER "
"R-28","2014-05-28T00:00:00","Cr","TRR-28-14-58566",208.27,"ug/L","REG","EES6","Y","Y","INIT","UF",NA,"TRACER "
"R-28","2014-05-28T00:00:00","Cr","TRR-28-14-58567",215.58,"ug/L","REG","EES6","Y","Y","INIT","UF",NA,"TRACER "
"R-28","2014-05-28T00:00:00","Cr","TRR-28-14-58568",233.8,"ug/L","REG","EES6","Y","Y","INIT","UF",NA,"TRACER "
"R-28","2014-05-28T00:00:00","Cr","TRR-28-14-58569",222.93,"ug/L","REG","EES6","Y","Y","INIT","UF",NA,"TRACER "
"R-28","2014-05-28T00:00:00","Cr","TRR-28-14-58570",233.89,"ug/L","REG","EES6","Y","Y","INIT","UF",NA,"TRACER "
"R-28","2014-05-28T00:00:00","Cr","TRR-28-14-58571",237.06,"ug/L","REG","EES6","Y","Y","INIT","UF",NA,"TRACER "
"R-28","2014-05-28T00:00:00","Cr","TRR-28-14-58572",246.01,"ug/L","REG","EES6","Y","Y","INIT","UF",NA,"TRACER "
"R-28","2014-05-28T00:00:00","Cr","TRR-28-14-58573",251.82,"ug/L","REG","EES6","Y","Y","INIT","UF",NA,"TRACER "
"R-28","2014-05-28T00:00:00","Cr","TRR-28-14-58574",263.4,"ug/L","REG","EES6","Y","Y","INIT","UF",NA,"TRACER "
"R-28","2014-05-28T00:00:00","Cr","TRR-28-14-58575",280.89,"ug/L","REG","EES6","Y","Y","INIT","UF",NA,"TRACER "
"R-28","2014-05-28T00:00:00","Cr","TRR-28-14-58576",261.23,"ug/L","REG","EES6","Y","Y","INIT","UF",NA,"TRACER "
"R-28","2014-05-28T00:00:00","Cr","TRR-28-14-58577",261.13,"ug/L","REG","EES6","Y","Y","INIT","UF",NA,"TRACER "
"R-28","2014-05-29T00:00:00","Cr","TRR-28-14-58578",298.79,"ug/L","REG","EES6","Y","Y","INIT","UF",NA,"TRACER "
"R-28","2014-05-29T00:00:00","Cr","TRR-28-14-58579",281.26,"ug/L","REG","EES6","Y","Y","INIT","UF",NA,"TRACER "
"R-28","2014-05-29T00:00:00","Cr","TRR-28-14-58580",287.32,"ug/L","REG","EES6","Y","Y","INIT","UF",NA,"TRACER "
"R-28","2014-05-29T00:00:00","Cr","TRR-28-14-58581",291.94,"ug/L","REG","EES6","Y","Y","INIT","UF",NA,"TRACER "
"R-28","2014-05-29T00:00:00","Cr","TRR-28-14-58582",289.19,"ug/L","REG","EES6","Y","Y","INIT","UF",NA,"TRACER "
"R-28","2014-05-29T00:00:00","Cr","TRR-28-14-58583",288.8,"ug/L","REG","EES6","Y","Y","INIT","UF",NA,"TRACER "
"R-28","2014-05-29T00:00:00","Cr","TRR-28-14-58584",298.84,"ug/L","REG","EES6","Y","Y","INIT","UF",NA,"TRACER "
"R-28","2014-05-29T00:00:00","Cr","TRR-28-14-58585",300.85,"ug/L","REG","EES6","Y","Y","INIT","UF",NA,"TRACER "
"R-28","2014-05-29T00:00:00","Cr","TRR-28-14-58586",306.06,"ug/L","REG","EES6","Y","Y","INIT","UF",NA,"TRACER "
"R-28","2014-05-29T00:00:00","Cr","TRR-28-14-58587",296.36,"ug/L","REG","EES6","Y","Y","INIT","UF",NA,"TRACER "
"R-28","2014-05-29T00:00:00","Cr","TRR-28-14-58588",300.73,"ug/L","REG","EES6","Y","Y","INIT","UF",NA,"TRACER "
"R-28","2014-05-29T00:00:00","Cr","TRR-28-14-58589",311.96,"ug/L","REG","EES6","Y","Y","INIT","UF",NA,"TRACER "
"R-28","2014-05-29T00:00:00","Cr","TRR-28-14-58590",303.17,"ug/L","REG","EES6","Y","Y","INIT","UF",NA,"TRACER "
"R-28","2014-05-29T00:00:00","Cr","TRR-28-14-58591",324.19,"ug/L","REG","EES6","Y","Y","INIT","UF",NA,"TRACER "
"R-28","2014-05-29T00:00:00","Cr","TRR-28-14-58592",319.96,"ug/L","REG","EES6","Y","Y","INIT","UF",NA,"TRACER "
"R-28","2014-05-29T00:00:00","Cr","TRR-28-14-58593",311.42,"ug/L","REG","EES6","Y","Y","INIT","UF",NA,"TRACER "
"R-28","2014-05-29T00:00:00","Cr","TRR-28-14-58594",309.95,"ug/L","REG","EES6","Y","Y","INIT","UF",NA,"TRACER "
"R-28","2014-05-29T00:00:00","Cr","TRR-28-14-58595",312.03,"ug/L","REG","EES6","Y","Y","INIT","UF",NA,"TRACER "
"R-28","2014-05-29T00:00:00","Cr","TRR-28-14-58596",314.13,"ug/L","REG","EES6","Y","Y","INIT","UF",NA,"TRACER "
"R-28","2014-05-29T00:00:00","Cr","TRR-28-14-58597",333.72,"ug/L","REG","EES6","Y","Y","INIT","UF",NA,"TRACER "
"R-28","2014-05-29T00:00:00","Cr","TRR-28-14-58598",333.2,"ug/L","REG","EES6","Y","Y","INIT","UF",NA,"TRACER "
"R-28","2014-05-29T00:00:00","Cr","TRR-28-14-58599",333.34,"ug/L","REG","EES6","Y","Y","INIT","UF",NA,"TRACER "
"R-28","2014-05-29T00:00:00","Cr","TRR-28-14-58600",336.14,"ug/L","REG","EES6","Y","Y","INIT","UF",NA,"TRACER "
"R-28","2014-05-29T00:00:00","Cr","TRR-28-14-58601",329.04,"ug/L","REG","EES6","Y","Y","INIT","UF",NA,"TRACER "
"R-28","2014-05-29T00:00:00","Cr","TRR-28-14-58602",337.62,"ug/L","REG","EES6","Y","Y","INIT","UF",NA,"TRACER "
"R-28","2014-05-29T00:00:00","Cr","TRR-28-14-58603",338.14,"ug/L","REG","EES6","Y","Y","INIT","UF",NA,"TRACER "
"R-28","2014-05-29T00:00:00","Cr","TRR-28-14-58604",333.44,"ug/L","REG","EES6","Y","Y","INIT","UF",NA,"TRACER "
"R-28","2014-05-29T00:00:00","Cr","TRR-28-14-58605",335.27,"ug/L","REG","EES6","Y","Y","INIT","UF",NA,"TRACER "
"R-28","2014-05-29T00:00:00","Cr","TRR-28-14-58606",336.48,"ug/L","REG","EES6","Y","Y","INIT","UF",NA,"TRACER "
"R-28","2014-05-29T00:00:00","Cr","TRR-28-14-58607",337.79,"ug/L","REG","EES6","Y","Y","INIT","UF",NA,"TRACER "
"R-28","2014-05-29T00:00:00","Cr","TRR-28-14-58608",339.64,"ug/L","REG","EES6","Y","Y","INIT","UF",NA,"TRACER "
"R-28","2014-05-29T00:00:00","Cr","TRR-28-14-58609",342.43,"ug/L","REG","EES6","Y","Y","INIT","UF",NA,"TRACER "
"R-28","2014-05-29T00:00:00","Cr","TRR-28-14-58610",383.44,"ug/L","REG","EES6","Y","Y","INIT","UF",NA,"TRACER "
"R-28","2014-05-29T00:00:00","Cr","TRR-28-14-58611",335.9,"ug/L","REG","EES6","Y","Y","INIT","UF",NA,"TRACER "
"R-28","2014-05-29T00:00:00","Cr","TRR-28-14-58612",339.37,"ug/L","REG","EES6","Y","Y","INIT","UF",NA,"TRACER "
"R-28","2014-05-29T00:00:00","Cr","TRR-28-14-58613",310.82,"ug/L","REG","EES6","Y","Y","INIT","UF",NA,"TRACER "
"R-28","2014-05-29T00:00:00","Cr","TRR-28-14-58614",350.57,"ug/L","REG","EES6","Y","Y","INIT","UF",NA,"TRACER "
"R-28","2014-05-29T00:00:00","Cr","TRR-28-14-58634",335.82,"ug/L","REG","EES6","Y","Y","INIT","UF",NA,"TRACER "
"R-28","2014-05-30T00:00:00","Cr","TRR-28-14-58615",273.68,"ug/L","REG","EES6","Y","Y","INIT","UF",NA,"TRACER "
"R-28","2014-05-30T00:00:00","Cr","TRR-28-14-58616",328.44,"ug/L","REG","EES6","Y","Y","INIT",NA,NA,NA
"R-28","2014-05-30T00:00:00","Cr","TRR-28-14-58617",334.78,"ug/L","REG","EES6","Y","Y","INIT",NA,NA,NA
"R-28","2014-05-30T00:00:00","Cr","TRR-28-14-58618",328.75,"ug/L","REG","EES6","Y","Y","INIT",NA,NA,NA
"R-28","2014-05-30T00:00:00","Cr","TRR-28-14-58619",347.71,"ug/L","REG","EES6","Y","Y","INIT","UF",NA,"TRACER "
"R-28","2014-05-30T00:00:00","Cr","TRR-28-14-58620",358.14,"ug/L","REG","EES6","Y","Y","INIT","UF",NA,"TRACER "
"R-28","2014-05-30T00:00:00","Cr","TRR-28-14-58621",342.68,"ug/L","REG","EES6","Y","Y","INIT","UF",NA,"TRACER "
"R-28","2014-05-30T00:00:00","Cr","TRR-28-14-58622",335.23,"ug/L","REG","EES6","Y","Y","INIT","UF",NA,"TRACER "
"R-28","2014-05-30T00:00:00","Cr","TRR-28-14-58623",350.65,"ug/L","REG","EES6","Y","Y","INIT","UF",NA,"TRACER "
"R-28","2014-05-30T00:00:00","Cr","TRR-28-14-58624",365.41,"ug/L","REG","EES6","Y","Y","INIT","UF",NA,"TRACER "
"R-28","2014-05-30T00:00:00","Cr","TRR-28-14-58625",374.75,"ug/L","REG","EES6","Y","Y","INIT","UF",NA,"TRACER "
"R-28","2014-05-30T00:00:00","Cr","TRR-28-14-58626",361.82,"ug/L","REG","EES6","Y","Y","INIT","UF",NA,"TRACER "
"R-28","2014-05-30T00:00:00","Cr","TRR-28-14-58627",269.17,"ug/L","REG","EES6","Y","Y","INIT","UF",NA,"TRACER "
"R-28","2014-05-30T00:00:00","Cr","TRR-28-14-58636",345.46,"ug/L","REG","EES6","Y","Y","INIT","UF",NA,"TRACER "
"R-28","2014-05-31T00:00:00","Cr","TRR-28-14-58628",352.81,"ug/L","REG","EES6","Y","Y","INIT","UF",NA,"TRACER "
"R-28","2014-05-31T00:00:00","Cr","TRR-28-14-58629",299.88,"ug/L","REG","EES6","Y","Y","INIT","UF",NA,"TRACER "
"R-28","2014-05-31T00:00:00","Cr","TRR-28-14-58630",270.36,"ug/L","REG","EES6","Y","Y","INIT","UF",NA,"TRACER "
"R-28","2014-05-31T00:00:00","Cr","TRR-28-14-58631",230.16,"ug/L","REG","EES6","Y","Y","INIT","UF",NA,"TRACER "
"R-28","2014-05-31T00:00:00","Cr","TRR-28-14-58632",205.45,"ug/L","REG","EES6","Y","Y","INIT","UF",NA,"TRACER "
"R-28","2014-05-31T00:00:00","Cr","TRR-28-14-58633",186.18,"ug/L","REG","EES6","Y","Y","INIT","UF",NA,"TRACER "
"R-28","2014-05-31T00:00:00","Cr","TRR-28-14-58638",328.93,"ug/L","REG","EES6","Y","Y","INIT","UF",NA,"TRACER "
"R-28","2014-05-31T00:00:00","Cr","TRR-28-14-58640",175.28,"ug/L","REG","EES6","Y","Y","INIT","UF",NA,"TRACER "
"R-28","2014-05-31T00:00:00","Cr","TRR-28-14-58641",123.52,"ug/L","REG","EES6","Y","Y","INIT","UF",NA,"TRACER "
"R-28","2014-05-31T00:00:00","Cr","TRR-28-14-58643",241.87,"ug/L","REG","EES6","Y","Y","INIT","UF",NA,"TRACER "
"R-28","2014-05-31T00:00:00","Cr","TRR-28-14-58644",333.08,"ug/L","REG","EES6","Y","Y","INIT","UF",NA,"TRACER "
"R-28","2014-05-31T00:00:00","Cr","TRR-28-14-58645",375.19,"ug/L","REG","EES6","Y","Y","INIT","UF",NA,"TRACER "
"R-28","2014-05-31T00:00:00","Cr","TRR-28-14-58646",314.88,"ug/L","REG","EES6","Y","Y","INIT","UF",NA,"TRACER "
"R-28","2014-05-31T00:00:00","Cr","TRR-28-14-58647",165.79,"ug/L","REG","EES6","Y","Y","INIT","UF",NA,"TRACER "
"R-28","2014-05-31T00:00:00","Cr","TRR-28-14-58648",333.45,"ug/L","REG","EES6","Y","Y","INIT","UF",NA,"TRACER "
"R-28","2014-05-31T00:00:00","Cr","TRR-28-14-58649",324.54,"ug/L","REG","EES6","Y","Y","INIT","UF",NA,"TRACER "
"R-28","2014-05-31T00:00:00","Cr","TRR-28-14-58650",326.07,"ug/L","REG","EES6","Y","Y","INIT","UF",NA,"TRACER "
"R-28","2014-05-31T00:00:00","Cr","TRR-28-14-58651",332.73,"ug/L","REG","EES6","Y","Y","INIT","UF",NA,"TRACER "
"R-28","2014-05-31T00:00:00","Cr","TRR-28-14-58652",330.13,"ug/L","REG","EES6","Y","Y","INIT","UF",NA,"TRACER "
"R-28","2014-05-31T00:00:00","Cr","TRR-28-14-58653",335.33,"ug/L","REG","EES6","Y","Y","INIT","UF",NA,"TRACER "
"R-28","2014-05-31T00:00:00","Cr","TRR-28-14-58654",327.43,"ug/L","REG","EES6","Y","Y","INIT","UF",NA,"TRACER "
"R-28","2014-05-31T00:00:00","Cr","TRR-28-14-58655",329.37,"ug/L","REG","EES6","Y","Y","INIT","UF",NA,"TRACER "
"R-28","2014-05-31T00:00:00","Cr","TRR-28-14-58745",324.1,"ug/L","REG","EES6","Y","Y","INIT","UF",NA,"TRACER "
"R-28","2014-05-31T00:00:00","Cr","TRR-28-14-58746",380.93,"ug/L","REG","EES6","Y","Y","INIT","UF",NA,"TRACER "
"R-28","2014-06-01T00:00:00","Cr","TRR-28-14-58656",329.42,"ug/L","REG","EES6","Y","Y","INIT","UF",NA,"TRACER "
"R-28","2014-06-01T00:00:00","Cr","TRR-28-14-58657",325.25,"ug/L","REG","EES6","Y","Y","INIT","UF",NA,"TRACER "
"R-28","2014-06-01T00:00:00","Cr","TRR-28-14-58658",315.08,"ug/L","REG","EES6","Y","Y","INIT","UF",NA,"TRACER "
"R-28","2014-06-01T00:00:00","Cr","TRR-28-14-58659",321.37,"ug/L","REG","EES6","Y","Y","INIT","UF",NA,"TRACER "
"R-28","2014-06-01T00:00:00","Cr","TRR-28-14-58660",313.56,"ug/L","REG","EES6","Y","Y","INIT","UF",NA,"TRACER "
"R-28","2014-06-01T00:00:00","Cr","TRR-28-14-58661",319.57,"ug/L","REG","EES6","Y","Y","INIT","UF",NA,"TRACER "
"R-28","2014-06-01T00:00:00","Cr","TRR-28-14-58662",332.18,"ug/L","REG","EES6","Y","Y","INIT","UF",NA,"TRACER "
"R-28","2014-06-01T00:00:00","Cr","TRR-28-14-58663",308.69,"ug/L","REG","EES6","Y","Y","INIT","UF",NA,"TRACER "
"R-28","2014-06-01T00:00:00","Cr","TRR-28-14-58664",315.8,"ug/L","REG","EES6","Y","Y","INIT","UF",NA,"TRACER "
"R-28","2014-06-01T00:00:00","Cr","TRR-28-14-58665",318.01,"ug/L","REG","EES6","Y","Y","INIT","UF",NA,"TRACER "
"R-28","2014-06-01T00:00:00","Cr","TRR-28-14-58666",324.85,"ug/L","REG","EES6","Y","Y","INIT","UF",NA,"TRACER "
"R-28","2014-06-01T00:00:00","Cr","TRR-28-14-58667",375.47,"ug/L","REG","EES6","Y","Y","INIT","UF",NA,"TRACER "
"R-28","2014-06-01T00:00:00","Cr","TRR-28-14-58668",349.04,"ug/L","REG","EES6","Y","Y","INIT","UF",NA,"TRACER "
"R-28","2014-06-01T00:00:00","Cr","TRR-28-14-58669",309.28,"ug/L","REG","EES6","Y","Y","INIT","UF",NA,"TRACER "
"R-28","2014-06-01T00:00:00","Cr","TRR-28-14-58670",333.37,"ug/L","REG","EES6","Y","Y","INIT","UF",NA,"TRACER "
"R-28","2014-06-01T00:00:00","Cr","TRR-28-14-58671",337.08,"ug/L","REG","EES6","Y","Y","INIT","UF",NA,"TRACER "
"R-28","2014-06-01T00:00:00","Cr","TRR-28-14-58672",347.54,"ug/L","REG","EES6","Y","Y","INIT","UF",NA,"TRACER "
"R-28","2014-06-01T00:00:00","Cr","TRR-28-14-58673",369.22,"ug/L","REG","EES6","Y","Y","INIT","UF",NA,"TRACER "
"R-28","2014-06-01T00:00:00","Cr","TRR-28-14-58674",348.07,"ug/L","REG","EES6","Y","Y","INIT","UF",NA,"TRACER "
"R-28","2014-06-01T00:00:00","Cr","TRR-28-14-58675",334.8,"ug/L","REG","EES6","Y","Y","INIT","UF",NA,"TRACER "
"R-28","2014-06-01T00:00:00","Cr","TRR-28-14-58676",331.79,"ug/L","REG","EES6","Y","Y","INIT","UF",NA,"TRACER "
"R-28","2014-06-01T00:00:00","Cr","TRR-28-14-58677",372.33,"ug/L","REG","EES6","Y","Y","INIT","UF",NA,"TRACER "
"R-28","2014-06-01T00:00:00","Cr","TRR-28-14-58678",342.41,"ug/L","REG","EES6","Y","Y","INIT","UF",NA,"TRACER "
"R-28","2014-06-01T00:00:00","Cr","TRR-28-14-58679",332.2,"ug/L","REG","EES6","Y","Y","INIT","UF",NA,"TRACER "
"R-28","2014-06-02T00:00:00","Cr","TRR-28-14-58680",348.19,"ug/L","REG","EES6","Y","Y","INIT","UF",NA,"TRACER "
"R-28","2014-06-02T00:00:00","Cr","TRR-28-14-58681",345.75,"ug/L","REG","EES6","Y","Y","INIT","UF",NA,"TRACER "
"R-28","2014-06-02T00:00:00","Cr","TRR-28-14-58682",337.76,"ug/L","REG","EES6","Y","Y","INIT","UF",NA,"TRACER "
"R-28","2014-06-02T00:00:00","Cr","TRR-28-14-58683",357.99,"ug/L","REG","EES6","Y","Y","INIT","UF",NA,"TRACER "
"R-28","2014-06-02T00:00:00","Cr","TRR-28-14-58684",341.28,"ug/L","REG","EES6","Y","Y","INIT","UF",NA,"TRACER "
"R-28","2014-06-02T00:00:00","Cr","TRR-28-14-58685",356.66,"ug/L","REG","EES6","Y","Y","INIT","UF",NA,"TRACER "
"R-28","2014-06-02T00:00:00","Cr","TRR-28-14-58686",352.24,"ug/L","REG","EES6","Y","Y","INIT","UF",NA,"TRACER "
"R-28","2014-06-02T00:00:00","Cr","TRR-28-14-58687",356.83,"ug/L","REG","EES6","Y","Y","INIT","UF",NA,"TRACER "
"R-28","2014-06-02T00:00:00","Cr","TRR-28-14-58688",352.93,"ug/L","REG","EES6","Y","Y","INIT","UF",NA,"TRACER "
"R-28","2014-06-02T00:00:00","Cr","TRR-28-14-58689",353.56,"ug/L","REG","EES6","Y","Y","INIT","UF",NA,"TRACER "
"R-28","2014-06-02T00:00:00","Cr","TRR-28-14-58690",341.04,"ug/L","REG","EES6","Y","Y","INIT","UF",NA,"TRACER "
"R-28","2014-06-02T00:00:00","Cr","TRR-28-14-58691",344.24,"ug/L","REG","EES6","Y","Y","INIT","UF",NA,"TRACER "
"R-28","2014-06-02T00:00:00","Cr","TRR-28-14-58692",368.1,"ug/L","REG","EES6","Y","Y","INIT","UF",NA,"TRACER "
"R-28","2014-06-02T00:00:00","Cr","TRR-28-14-58693",356.14,"ug/L","REG","EES6","Y","Y","INIT","UF",NA,"TRACER "
"R-28","2014-06-02T00:00:00","Cr","TRR-28-14-58694",337.14,"ug/L","REG","EES6","Y","Y","INIT","UF",NA,"TRACER "
"R-28","2014-06-02T00:00:00","Cr","TRR-28-14-58695",337.2,"ug/L","REG","EES6","Y","Y","INIT","UF",NA,"TRACER "
"R-28","2014-06-02T00:00:00","Cr","TRR-28-14-58696",329.42,"ug/L","REG","EES6","Y","Y","INIT","UF",NA,"TRACER "
"R-28","2014-06-02T00:00:00","Cr","TRR-28-14-58697",319.59,"ug/L","REG","EES6","Y","Y","INIT","UF",NA,"TRACER "
"R-28","2014-06-02T00:00:00","Cr","TRR-28-14-58698",324.43,"ug/L","REG","EES6","Y","Y","INIT","UF",NA,"TRACER "
"R-28","2014-06-02T00:00:00","Cr","TRR-28-14-58699",321.71,"ug/L","REG","EES6","Y","Y","INIT","UF",NA,"TRACER "
"R-28","2014-06-02T00:00:00","Cr","TRR-28-14-58700",318.71,"ug/L","REG","EES6","Y","Y","INIT","UF",NA,"TRACER "
"R-28","2014-06-02T00:00:00","Cr","TRR-28-14-58701",317.1,"ug/L","REG","EES6","Y","Y","INIT","UF",NA,"TRACER "
"R-28","2014-06-02T00:00:00","Cr","TRR-28-14-58702",314.51,"ug/L","REG","EES6","Y","Y","INIT","UF",NA,"TRACER "
"R-28","2014-06-02T00:00:00","Cr","TRR-28-14-58703",314.25,"ug/L","REG","EES6","Y","Y","INIT","UF",NA,"TRACER "
"R-28","2014-06-03T00:00:00","Cr","TRR-28-14-58704",325.46,"ug/L","REG","EES6","Y","Y","INIT","UF",NA,"TRACER "
"R-28","2014-06-03T00:00:00","Cr","TRR-28-14-58705",323.76,"ug/L","REG","EES6","Y","Y","INIT","UF",NA,"TRACER "
"R-28","2014-06-03T00:00:00","Cr","TRR-28-14-58706",315.11,"ug/L","REG","EES6","Y","Y","INIT","UF",NA,"TRACER "
"R-28","2014-06-03T00:00:00","Cr","TRR-28-14-58707",322.05,"ug/L","REG","EES6","Y","Y","INIT","UF",NA,"TRACER "
"R-28","2014-06-03T00:00:00","Cr","TRR-28-14-58708",317.49,"ug/L","REG","EES6","Y","Y","INIT","UF",NA,"TRACER "
"R-28","2014-06-03T00:00:00","Cr","TRR-28-14-58709",317.78,"ug/L","REG","EES6","Y","Y","INIT","UF",NA,"TRACER "
"R-28","2014-06-03T00:00:00","Cr","TRR-28-14-58710",318.06,"ug/L","REG","EES6","Y","Y","INIT","UF",NA,"TRACER "
"R-28","2014-06-03T00:00:00","Cr","TRR-28-14-58711",329.72,"ug/L","REG","EES6","Y","Y","INIT","UF",NA,"TRACER "
"R-28","2014-06-03T00:00:00","Cr","TRR-28-14-58712",301.92,"ug/L","REG","EES6","Y","Y","INIT","UF",NA,"TRACER "
"R-28","2014-07-11T00:00:00","Cr","CAMO-14-84008",362.0,"ug/L","REG","GELC","Y","Y","INIT","F",1.0,"TEST"
"R-28","2014-11-13T00:00:00","Cr","CAMO-15-90229",421.0,"ug/L","REG","GELC","Y","Y","INIT","F",1.0,"INV"
"R-28","2015-02-25T00:00:00","Cr","CAMO-15-92497",422.0,"ug/L","REG","GELC","Y","Y","INIT","F",1.0,"INV"
"R-28","2015-05-11T00:00:00","Cr","CAMO-15-95800",393.0,"ug/L","REG","GELC","Y","Y","INIT","F",1.0,"INV"
"R-28","2015-07-09T00:00:00","Cr","VS-R28-V2-102186",37.8,"ug/L","REG","GELC","Y","Y","INIT","UF",1.0,"SCR"
"R-28","2015-07-09T00:00:00","Cr","VS-R28-V2-102187",95.1,"ug/L","REG","GELC","Y","Y","INIT","UF",1.0,"SCR"
"R-28","2015-07-09T00:00:00","Cr","VS-R28-V4X-102188",2.0,"ug/L","REG","GELC","Y","N","INIT","UF",1.0,"SCR"
"R-28","2015-07-09T00:00:00","Cr","VS-R28-V4X-102189",2.91,"ug/L","REG","GELC","Y","Y","INIT","UF",1.0,"SCR"
"R-28","2015-07-09T00:00:00","Cr","VS-R28-V4X-102191",2.0,"ug/L","REG","GELC","Y","N","INIT","UF",1.0,"SCR"
"R-28","2015-07-09T00:00:00","Cr","VS-R28-V4X-102192",2.0,"ug/L","REG","GELC","Y","N","INIT","UF",1.0,"SCR"
"R-28","2015-07-09T00:00:00","Cr","VS-R28-V4X-102194",2.0,"ug/L","REG","GELC","Y","N","INIT","UF",1.0,"SCR"
"R-28","2015-07-09T00:00:00","Cr","VS-R28-V4X-102195",2.0,"ug/L","REG","GELC","Y","N","INIT","UF",1.0,"SCR"
"R-28","2015-07-09T00:00:00","Cr","VS-R28-V5X-102197",7.76,"ug/L","REG","GELC","Y","Y","INIT","UF",1.0,"SCR"
"R-28","2015-07-09T00:00:00","Cr","VS-R28-V5X-102198",29.8,"ug/L","REG","GELC","Y","Y","INIT","UF",1.0,"SCR"
"R-28","2015-07-09T00:00:00","Cr","VS-R28-V5X-102200",2.0,"ug/L","REG","GELC","Y","N","INIT","UF",1.0,"SCR"
"R-28","2015-07-09T00:00:00","Cr","VS-R28-V5X-102201",2.0,"ug/L","REG","GELC","Y","N","INIT","UF",1.0,"SCR"
"R-28","2015-07-09T00:00:00","Cr","VS-R28-V5X-102203",5.8,"ug/L","REG","GELC","Y","Y","INIT","UF",1.0,"SCR"
"R-28","2015-07-09T00:00:00","Cr","VS-R28-V5X-102204",2.0,"ug/L","REG","GELC","Y","N","INIT","UF",1.0,"SCR"
"R-28","2015-07-09T00:00:00","Cr","VS-R28-V6-102206",11.3,"ug/L","REG","GELC","Y","Y","INIT","UF",1.0,"SCR"
"R-28","2015-08-12T00:00:00","Cr","CAMO-15-102603",407.0,"ug/L","REG","GELC","Y","Y","INIT","F",1.0,"INV"
"R-28","2015-09-18T00:00:00","Cr","VS-R28-V4a-104358",2.63,"ug/L","REG","GELC","Y","Y","INIT","UF",1.0,"TEST"
"R-28","2015-09-18T00:00:00","Cr","VS-R28-V5a-104359",4.75,"ug/L","REG","GELC","Y","Y","INIT","UF",1.0,"TEST"
"R-28","2015-11-16T00:00:00","Cr","CAMO-16-106121",407.0,"ug/L","REG","GELC","Y","Y","INIT","F",1.0,"INV"
"R-28","2016-02-11T00:00:00","Cr","CAMO-16-110037",404.0,"ug/L","REG","GELC","Y","Y","INIT","F",1.0,"INV"
"R-28","2016-05-11T00:00:00","Cr","CAMO-16-115275",368.0,"ug/L","REG","GELC","Y","Y","INIT","F",10.0,"INV"
"R-28","2016-05-25T00:00:00","Cr","WSTMO-16-121824",2.0,"ug/L","REG","GELC","Y","N","INIT","UF",1.0,"WST"
"R-28","2016-05-25T00:00:00","Cr","WSTMO-16-121825",2.0,"ug/L","REG","GELC","Y","N","INIT","UF",1.0,"WST"
"R-28","2016-05-25T00:00:00","Cr","WSTMO-16-121826",2.0,"ug/L","REG","GELC","Y","N","INIT","UF",1.0,"WST"
"R-28","2016-05-25T00:00:00","Cr","WSTMO-16-121827",2.42,"ug/L","REG","GELC","Y","Y","INIT","UF",1.0,"WST"
"R-28","2016-05-25T00:00:00","Cr","WSTMO-16-121828",2.25,"ug/L","REG","GELC","Y","Y","INIT","UF",1.0,"WST"
"R-28","2016-05-25T00:00:00","Cr","WSTMO-16-121829",11.6,"ug/L","REG","GELC","Y","Y","INIT","UF",1.0,"WST"
"R-28","2016-07-25T00:00:00","Cr","CAMO-16-124291",430.0,"ug/L","REG","GELC","Y","Y","INIT","F",1.0,"INV"
"R-28","2016-09-19T00:00:00","Cr","TRR-28-16-123691",365.77,"ug/L","REG","EES6","Y","Y","INIT","F",NA,"TRACER "
"R-28","2016-10-05T00:00:00","Cr","TRR-28-16-123692",47.646,"ug/L","REG","EES6","Y","Y","INIT","F",NA,"TRACER "
"R-28","2016-10-06T00:00:00","Cr","TRR-28-16-123693",55.524,"ug/L","REG","EES6","Y","Y","INIT","F",NA,"TRACER "
"R-28","2016-10-07T00:00:00","Cr","TRR-28-16-123694",43.678,"ug/L","REG","EES6","Y","Y","INIT","F",NA,"TRACER "
"R-28","2016-10-08T00:00:00","Cr","TRR-28-16-123695",47.577,"ug/L","REG","EES6","Y","Y","INIT","F",NA,"TRACER "
"R-28","2016-10-09T00:00:00","Cr","TRR-28-16-123696",41.026,"ug/L","REG","EES6","Y","Y","INIT","F",NA,"TRACER "
"R-28","2016-10-10T00:00:00","Cr","TRR-28-16-123697",44.741,"ug/L","REG","EES6","Y","Y","INIT","F",NA,"TRACER "
"R-28","2016-10-11T00:00:00","Cr","TRR-28-16-123698",43.596,"ug/L","REG","EES6","Y","Y","INIT","F",NA,"TRACER "
"R-28","2016-10-12T00:00:00","Cr","TRR-28-16-123699",44.833,"ug/L","REG","EES6","Y","Y","INIT","F",NA,"TRACER "
"R-28","2016-10-13T00:00:00","Cr","TRR-28-16-123700",62.355,"ug/L","REG","EES6","Y","Y","INIT","F",NA,"TRACER "
"R-28","2016-10-13T00:00:00","Cr","TRR-28-16-123701",49.139,"ug/L","REG","EES6","Y","Y","INIT","F",NA,"TRACER "
"R-28","2016-10-15T00:00:00","Cr","TRR-28-16-123702",55.077,"ug/L","REG","EES6","Y","Y","INIT","F",NA,"TRACER "
"R-28","2016-10-16T00:00:00","Cr","TRR-28-16-123703",56.563,"ug/L","REG","EES6","Y","Y","INIT","F",NA,"TRACER "
"R-28","2016-10-17T00:00:00","Cr","TRR-28-16-123704",54.235,"ug/L","REG","EES6","Y","Y","INIT","F",NA,"TRACER "
"R-28","2016-10-18T00:00:00","Cr","TRR-28-16-123705",82.26,"ug/L","REG","EES6","Y","Y","INIT","F",NA,"TRACER "
"R-28","2016-10-19T00:00:00","Cr","TRR-28-16-123706",79.265,"ug/L","REG","EES6","Y","Y","INIT","F",NA,"TRACER "
"R-28","2016-10-20T00:00:00","Cr","TRR-28-16-123707",88.223,"ug/L","REG","EES6","Y","Y","INIT","F",NA,"TRACER "
"R-28","2016-10-21T00:00:00","Cr","TRR-28-16-123708",90.776,"ug/L","REG","EES6","Y","Y","INIT","F",NA,"TRACER "
"R-28","2016-10-22T00:00:00","Cr","TRR-28-16-123709",81.702,"ug/L","REG","EES6","Y","Y","INIT","F",NA,"TRACER "
"R-28","2016-10-22T00:00:00","Cr","TRR-28-16-123710",79.411,"ug/L","REG","EES6","Y","Y","INIT","F",NA,"TRACER "
"R-28","2016-10-24T00:00:00","Cr","TRR-28-16-123711",113.81,"ug/L","REG","EES6","Y","Y","INIT","F",NA,"TRACER "
"R-28","2016-10-25T00:00:00","Cr","TRR-28-16-123712",95.545,"ug/L","REG","EES6","Y","Y","INIT","F",NA,"TRACER "
"R-28","2016-10-26T00:00:00","Cr","TRR-28-16-123713",94.401,"ug/L","REG","EES6","Y","Y","INIT","F",NA,"TRACER "
"R-28","2016-10-27T00:00:00","Cr","TRR-28-16-123714",102.6,"ug/L","REG","EES6","Y","Y","INIT","F",NA,"TRACER "
"R-28","2016-10-28T00:00:00","Cr","TRR-28-16-123715",100.65,"ug/L","REG","EES6","Y","Y","INIT","F",NA,"TRACER "
"R-28","2016-10-29T00:00:00","Cr","TRR-28-16-123716",112.89,"ug/L","REG","EES6","Y","Y","INIT","F",NA,"TRACER "
"R-28","2016-10-30T00:00:00","Cr","TRR-28-16-123717",107.52,"ug/L","REG","EES6","Y","Y","INIT","F",NA,"TRACER "
"R-28","2016-10-31T00:00:00","Cr","TRR-28-16-123718",113.89,"ug/L","REG","EES6","Y","Y","INIT","F",NA,"TRACER "
"R-28","2016-11-01T00:00:00","Cr","TRR-28-16-123719",128.95,"ug/L","REG","EES6","Y","Y","INIT","F",NA,"TRACER "
"R-28","2016-11-02T00:00:00","Cr","TRR-28-16-123720",139.45,"ug/L","REG","EES6","Y","Y","INIT","F",NA,"TRACER "
"R-28","2016-11-03T00:00:00","Cr","TRR-28-16-123721",149.07,"ug/L","REG","EES6","Y","Y","INIT","F",NA,"TRACER "
"R-28","2016-11-04T00:00:00","Cr","TRR-28-16-123722",161.32,"ug/L","REG","EES6","Y","Y","INIT","F",NA,"TRACER "
"R-28","2016-11-05T00:00:00","Cr","TRR-28-16-123723",151.04,"ug/L","REG","EES6","Y","Y","INIT","F",NA,"TRACER "
"R-28","2016-11-06T00:00:00","Cr","TRR-28-16-123724",165.0,"ug/L","REG","EES6","Y","Y","INIT","F",NA,"TRACER "
"R-28","2016-11-07T00:00:00","Cr","TRR-28-16-123725",194.2,"ug/L","REG","EES6","Y","Y","INIT","F",NA,"TRACER "
"R-28","2016-11-08T00:00:00","Cr","TRR-28-16-123726",206.19,"ug/L","REG","EES6","Y","Y","INIT","F",NA,"TRACER "
"R-28","2016-11-09T00:00:00","Cr","TRR-28-16-123727",259.49,"ug/L","REG","EES6","Y","Y","INIT","F",NA,"TRACER "
"R-28","2016-11-10T00:00:00","Cr","TRR-28-16-123728",311.68,"ug/L","REG","EES6","Y","Y","INIT","F",NA,"TRACER "
"R-28","2016-11-11T00:00:00","Cr","TRR-28-16-123729",203.89,"ug/L","REG","EES6","Y","Y","INIT",NA,NA,NA
"R-28","2016-11-14T00:00:00","Cr","TRR-28-16-123730",223.37,"ug/L","REG","EES6","Y","Y","INIT",NA,NA,NA
"R-28","2016-11-15T00:00:00","Cr","TRR-28-17-127651",424.24,"ug/L","REG","EES6","Y","Y","INIT","F",NA,"TRACER "
"R-28","2016-11-16T00:00:00","Cr","TRR-28-17-127652",331.69,"ug/L","REG","EES6","Y","Y","INIT","F",NA,"TRACER "
"R-28","2016-11-17T00:00:00","Cr","TRR-28-17-127653",318.73,"ug/L","REG","EES6","Y","Y","INIT","F",NA,"TRACER "
"R-28","2016-11-18T00:00:00","Cr","TRR-28-17-127654",359.93,"ug/L","REG","EES6","Y","Y","INIT","F",NA,"TRACER "
