"Location ID","Sample Date","Parameter Name","Field Sample ID","Report Result","Report Units","Sample Purpose","Lab ID","Best Value","Detected","Analysis Type Code","Field Preparation Code","Dilution Factor","Sample Usage Code"
"R-45 S1","2009-02-28T00:00:00","Cr","CAMO-09-4583",8.1,"ug/L","REG","GELC","Y","Y","INIT","UF",1.0,"SCR"
"R-45 S1","2009-02-28T00:00:00","Cr","CAMO-09-4585",8.4,"ug/L","REG","GELC","Y","Y","INIT","F",1.0,"INV"
"R-45 S1","2009-07-16T00:00:00","Cr","CAMO-09-11401",12.4,"ug/L","REG","GELC","Y","Y","INIT","UF",1.0,"SCR"
"R-45 S1","2009-07-16T00:00:00","Cr","CAMO-09-11402",12.1,"ug/L","REG","GELC","Y","Y","INIT","F",1.0,"INV"
"R-45 S1","2009-07-16T00:00:00","Cr","CAMO-09-11403",12.3,"ug/L","REG","GELC","Y","Y","INIT","F",1.0,"INV"
"R-45 S1","2009-08-19T00:00:00","Cr","CAMO-09-10252",14.5,"ug/L","REG","GELC","Y","Y","INIT","F",1.0,"INV"
"R-45 S1","2009-08-19T00:00:00","Cr","CAMO-09-10254",14.9,"ug/L","REG","GELC","Y","Y","INIT","UF",1.0,"SCR"
"R-45 S1","2009-08-19T00:00:00","Cr","CAMO-09-10293",13.3,"ug/L","REG","GELC","Y","Y","INIT","F",1.0,"INV"
"R-45 S1","2009-11-16T00:00:00","Cr","CAMO-10-3229",15.7,"ug/L","REG","GELC","Y","Y","INIT","F",1.0,"INV"
"R-45 S1","2009-11-16T00:00:00","Cr","CAMO-10-3231",16.4,"ug/L","REG","GELC","Y","Y","INIT","UF",1.0,"SCR"
"R-45 S1","2009-11-16T00:00:00","Cr","CAMO-10-3903",17.4,"ug/L","REG","GELC","Y","Y","INIT","F",1.0,"INV"
"R-45 S1","2010-01-27T00:00:00","Cr","CAMO-10-9378",14.4,"ug/L","REG","GELC","Y","Y","INIT","F",1.0,"INV"
"R-45 S1","2010-01-27T00:00:00","Cr","CAMO-10-9379",14.3,"ug/L","REG","GELC","Y","Y","INIT","UF",1.0,"SCR"
"R-45 S1","2010-01-27T00:00:00","Cr","CAMO-10-9731",21.4,"ug/L","REG","GELC","Y","Y","INIT","F",1.0,"INV"
"R-45 S1","2010-05-13T00:00:00","Cr","CAMO-10-16824",14.5,"ug/L","REG","GELC","Y","Y","INIT","F",1.0,"INV"
"R-45 S1","2010-05-13T00:00:00","Cr","CAMO-10-16825",18.1,"ug/L","REG","GELC","Y","Y","INIT","UF",1.0,"SCR"
"R-45 S1","2010-07-02T00:00:00","Cr","CAMO-10-22876",15.4,"ug/L","REG","GELC","Y","Y","INIT","F",1.0,"INV"
"R-45 S1","2010-07-02T00:00:00","Cr","CAMO-10-22877",14.9,"ug/L","REG","GELC","Y","Y","INIT","UF",1.0,"INV"
"R-45 S1","2010-11-19T00:00:00","Cr","CAMO-11-1279",18.6,"ug/L","REG","GELC","Y","Y","INIT","UF",1.0,"SCR"
"R-45 S1","2010-11-19T00:00:00","Cr","CAMO-11-1280",17.5,"ug/L","REG","GELC","Y","Y","INIT","F",1.0,"INV"
"R-45 S1","2011-02-10T00:00:00","Cr","CAMO-11-4606",15.8,"ug/L","REG","GELC","Y","Y","INIT","F",1.0,"INV"
"R-45 S1","2011-02-10T00:00:00","Cr","CAMO-11-4607",14.8,"ug/L","REG","GELC","Y","Y","INIT","UF",1.0,"INV"
"R-45 S1","2011-05-20T00:00:00","Cr","CAMO-11-10710",16.2,"ug/L","REG","GELC","Y","Y","INIT","UF",1.0,"SCR"
"R-45 S1","2011-05-20T00:00:00","Cr","CAMO-11-10711",17.6,"ug/L","REG","GELC","Y","Y","INIT","F",1.0,"INV"
"R-45 S1","2011-08-01T00:00:00","Cr","CAMO-11-24641",17.9,"ug/L","REG","GELC","Y","Y","INIT","F",1.0,"INV"
"R-45 S1","2011-08-01T00:00:00","Cr","CAMO-11-24642",18.0,"ug/L","REG","GELC","Y","Y","INIT","UF",1.0,"INV"
"R-45 S1","2011-11-16T00:00:00","Cr","CAMO-12-1492",20.9,"ug/L","REG","GELC","Y","Y","INIT","F",1.0,"INV"
"R-45 S1","2011-11-16T00:00:00","Cr","CAMO-12-1494",22.2,"ug/L","REG","GELC","Y","Y","INIT","UF",1.0,"INV"
"R-45 S1","2012-05-22T00:00:00","Cr","CAMO-12-14027",19.0,"ug/L","REG","GELC","Y","Y","INIT","F",1.0,"INV"
"R-45 S1","2012-11-06T00:00:00","Cr","CAMO-13-24264",23.0,"ug/L","REG","GELC","Y","Y","INIT","F",1.0,"INV"
"R-45 S1","2013-05-09T00:00:00","Cr","CAMO-13-30596",24.1,"ug/L","REG","GELC","Y","Y","INIT","F",1.0,"INV"
"R-45 S1","2013-11-06T00:00:00","Cr","CAMO-14-45768",27.7,"ug/L","REG","GELC","Y","Y","INIT","F",1.0,"INV"
"R-45 S1","2014-01-14T00:00:00","Cr","CAMO-14-49660",3.8,"ug/L","PEB","GELC","Y","Y","INIT","UF",1.0,"QC"
"R-45 S1","2014-05-07T00:00:00","Cr","CAMO-14-75517",29.3,"ug/L","REG","GELC","Y","Y","INIT","F",1.0,"INV"
"R-45 S1","2014-11-05T00:00:00","Cr","CAMO-15-90235",33.6,"ug/L","REG","GELC","Y","Y","INIT","F",1.0,"INV"
"R-45 S1","2015-02-18T00:00:00","Cr","CAMO-15-92472",10.0,"ug/L","PEB","GELC","Y","N","INIT","UF",1.0,"QC"
"R-45 S1","2015-02-18T00:00:00","Cr","CAMO-15-92503",27.3,"ug/L","REG","GELC","Y","Y","INIT","F",1.0,"INV"
"R-45 S1","2015-05-04T00:00:00","Cr","CAMO-15-95807",35.0,"ug/L","REG","GELC","Y","Y","INIT","F",1.0,"INV"
"R-45 S1","2015-08-05T00:00:00","Cr","CAMO-15-102610",35.7,"ug/L","REG","GELC","Y","Y","INIT","F",1.0,"INV"
"R-45 S1","2015-11-11T00:00:00","Cr","CAMO-16-106128",37.8,"ug/L","REG","GELC","Y","Y","INIT","F",1.0,"INV"
"R-45 S1","2016-02-10T00:00:00","Cr","CAMO-16-110044",39.8,"ug/L","REG","GELC","Y","Y","INIT","F",1.0,"INV"
"R-45 S1","2016-05-10T00:00:00","Cr","CAMO-16-115282",40.0,"ug/L","REG","GELC","Y","Y","INIT","F",1.0,"INV"
"R-45 S1","2016-07-28T00:00:00","Cr","CAMO-16-124249",42.2,"ug/L","FD","GELC","Y","Y","INIT","F",1.0,"QC"
"R-45 S1","2016-07-28T00:00:00","Cr","CAMO-16-124298",41.9,"ug/L","REG","GELC","Y","Y","INIT","F",1.0,"INV"
"R-45 S1","2016-11-17T00:00:00","Cr","CAMO-17-127254",42.3,"ug/L","REG","GELC","Y","Y","INIT","F",1.0,"INV"
